<?xml version="1.0" encoding="utf-8"?>
<!-- Generator: Adobe Illustrator 25.0.0, SVG Export Plug-In . SVG Version: 6.00 Build 0)  -->
<svg version="1.1" id="Capa_1" xmlns="http://www.w3.org/2000/svg" xmlns:xlink="http://www.w3.org/1999/xlink" x="0px" y="0px"
	 viewBox="0 0 512 512" style="enable-background:new 0 0 512 512;" xml:space="preserve">
<style type="text/css">
	.st0{fill:#FFFFFF;}
	.st1{fill:#FFD600;}
	.st2{fill:#002850;}
	.st3{fill:#FFFFFF;stroke:#002850;stroke-width:15;stroke-linecap:round;stroke-linejoin:round;stroke-miterlimit:10;}
	.st4{fill:none;stroke:#002850;stroke-width:15;stroke-linecap:round;stroke-linejoin:round;stroke-miterlimit:10;}
</style>
<rect x="388.7" y="343" class="st0" width="80.6" height="80.6"/>
<g>
	<path class="st1" d="M429,519.5c-2.3,0-4.6-1.1-6-3.1c-2.5-3.3-1.7-8,1.6-10.5l30.6-22.5c3.3-2.5,8-1.7,10.5,1.6s1.7,8-1.6,10.5
		L433.4,518C432.1,519,430.5,519.5,429,519.5z"/>
</g>
<g>
	<g>
		<path class="st2" d="M355.7,315.8c3.5,2.3,7.5,3.5,11.5,3.5s8-1.2,11.5-3.5c5.8-3.9,9.3-10.3,9.3-17.3s-3.5-13.4-9.3-17.3
			L203.6,164.8c-3.9-2.6-8.8-2.6-12.7,0l-50,33.3V194h0.2c5,0,9-4.1,9-9v-17.6c0-5-4.1-9-9-9H79.6c-5,0-9,4.1-9,9V185c0,5,4.1,9,9,9
			h0.2v44.7l-63.9,42.5c-5.8,3.9-9.3,10.3-9.3,17.3s3.5,13.4,9.3,17.3c7,4.6,16,4.6,23,0l0,0l14.3-9.5v93.4c0,4,3.3,7.3,7.3,7.3
			s7.3-3.3,7.3-7.3V296.6l129.6-86.2L327,296.6v178.3H180.6V347.8c0-6.6-5.4-12-12-12H97.8c-6.6,0-12,5.4-12,12v127.1H67.7v-29.7
			c0-4-3.3-7.3-7.3-7.3s-7.3,3.3-7.3,7.3v29.7H33.4c-10.2,0-18.6,8.3-18.6,18.6c0,10.2,8.3,18.6,18.6,18.6h327.8
			c10.2,0,18.6-8.3,18.6-18.6s-8.3-18.6-18.6-18.6h-19.7V306.3L355.7,315.8z M85.2,172.9h50.4v6.5H85.2V172.9z M126.3,194L126.3,194
			v13.8L94.4,229v-35H126.3z M100.4,350.4H166v124.5h-65.7L100.4,350.4L100.4,350.4z M361.2,489.5c2.2,0,4,1.8,4,4s-1.8,4-4,4H33.4
			c-2.2,0-4-1.8-4-4s1.8-4,4-4H361.2z M203.6,197.1c-0.9-0.6-1.9-1.1-2.9-1.4c-0.1,0-0.1,0-0.2-0.1c-0.1,0-0.2,0-0.3-0.1
			c-0.4-0.1-0.9-0.2-1.4-0.3c-0.2,0-0.5-0.1-0.7-0.1H198c-0.3,0-0.6,0-0.8,0c-2.2,0-4.4,0.6-6.4,1.9L30.7,303.6
			c-2.1,1.4-4.7,1.4-6.8,0c-1.7-1.2-2.7-3-2.7-5.1s1-4,2.7-5.1l173.4-115.3l173.4,115.3c1.7,1.2,2.7,3,2.7,5.1s-1,4-2.7,5.1
			c-2.1,1.4-4.7,1.4-6.8,0L203.6,197.1z"/>
	</g>
</g>
<g>
	<g>
		<path class="st2" d="M310.4,423.6h-5v-44.4c0-5.7-4.7-10.4-10.4-10.4h-85.1c-5.7,0-10.4,4.7-10.4,10.4v44.4h-3.8
			c-4,0-7.3,3.3-7.3,7.3s3.3,7.3,7.3,7.3h114.7c4,0,7.3-3.3,7.3-7.3C317.7,426.9,314.4,423.6,310.4,423.6z M290.8,423.6H214v-40.3
			h76.7L290.8,423.6L290.8,423.6z"/>
	</g>
</g>
<rect x="388.7" y="343" class="st3" width="80.6" height="80.6"/>
<line class="st4" x1="429" y1="423.6" x2="429" y2="503.9"/>
<g>
	<path class="st1" d="M418.8,411c-4.1,0-7.5-3.4-7.5-7.5v-40.6c0-4.1,3.4-7.5,7.5-7.5h15.8c9.8,0,17.7,7.9,17.7,17.7
		s-7.9,17.7-17.7,17.7h-8.3v12.7C426.3,407.6,422.9,411,418.8,411z M426.3,375.8h8.3c1.5,0,2.7-1.2,2.7-2.7s-1.2-2.7-2.7-2.7h-8.3
		V375.8z"/>
</g>
<g>
	<path class="st1" d="M429,519.5c-1.7,0-3.5-0.6-4.9-1.8l-31.4-27.2c-3.1-2.7-3.5-7.4-0.8-10.6c2.7-3.1,7.5-3.5,10.6-0.8l31.4,27.2
		c3.1,2.7,3.5,7.4,0.8,10.6C433.2,518.6,431.1,519.5,429,519.5z"/>
</g>
</svg>
