<svg xmlns="http://www.w3.org/2000/svg" width="15.752" height="15.753" viewBox="0 0 15.752 15.753">
  <g id="arrow-down-short" transform="translate(-10.125 25.877) rotate(-90)">
    <path id="Tracé_236" data-name="Tracé 236" d="M10.454,17.2a1.125,1.125,0,0,1,1.593,0L18,23.159,23.954,17.2A1.126,1.126,0,1,1,25.547,18.8l-6.75,6.75a1.125,1.125,0,0,1-1.593,0l-6.75-6.75a1.125,1.125,0,0,1,0-1.593Z" fill="#fff" fill-rule="evenodd"/>
    <path id="Tracé_237" data-name="Tracé 237" d="M18,10.125a1.125,1.125,0,0,1,1.125,1.125V22.5a1.125,1.125,0,0,1-2.25,0V11.25A1.125,1.125,0,0,1,18,10.125Z" fill="#fff" fill-rule="evenodd"/>
  </g>
</svg>
