<svg xmlns="http://www.w3.org/2000/svg" width="13.595" height="22.947" viewBox="0 0 13.595 22.947">
  <g id="Icon_feather-plus" data-name="Icon feather-plus" transform="translate(2.121 2.121)">
    <path id="Tracé_4378" data-name="Tracé 4378" d="M0,13.226V0" transform="translate(9.352 9.352) rotate(45)" fill="none" stroke="#fff" stroke-linecap="round" stroke-linejoin="round" stroke-width="3"/>
    <path id="Tracé_4379" data-name="Tracé 4379" d="M0,0H13.226" transform="translate(0) rotate(45)" fill="none" stroke="#fff" stroke-linecap="round" stroke-linejoin="round" stroke-width="3"/>
  </g>
</svg>
