<?xml version="1.0" encoding="utf-8"?>
<!-- Generator: Adobe Illustrator 25.0.0, SVG Export Plug-In . SVG Version: 6.00 Build 0)  -->
<svg version="1.1" id="Capa_1" xmlns="http://www.w3.org/2000/svg" xmlns:xlink="http://www.w3.org/1999/xlink" x="0px" y="0px"
	 viewBox="0 0 512 512" style="enable-background:new 0 0 512 512;" xml:space="preserve">
<style type="text/css">
	.st0{fill:#FFFFFF;}
	.st1{fill:#FFD600;}
	.st2{fill:none;stroke:#002850;stroke-width:16.8095;stroke-linecap:round;stroke-linejoin:round;stroke-miterlimit:10;}
	.st3{fill:#FFFFFF;stroke:#002850;stroke-width:16.8095;stroke-linecap:round;stroke-linejoin:round;stroke-miterlimit:10;}
</style>
<path class="st0" d="M188.9,188.8h-58.2v-6.5c0-16.1,13-29.1,29.1-29.1l0,0c16.1,0,29.1,13,29.1,29.1L188.9,188.8L188.9,188.8z"/>
<g>
	<g>
		<path class="st1" d="M176.3,264.7c-4.1,0-7.5-3.4-7.5-7.5v-26.7c0-4.1,3.4-7.5,7.5-7.5s7.5,3.4,7.5,7.5v26.7
			C183.8,261.3,180.4,264.7,176.3,264.7z"/>
	</g>
	<g>
		<path class="st1" d="M176.3,334c-4.1,0-7.5-3.4-7.5-7.5v-29.2c0-4.1,3.4-7.5,7.5-7.5s7.5,3.4,7.5,7.5v29.2
			C183.8,330.6,180.4,334,176.3,334z"/>
	</g>
	<g>
		<path class="st1" d="M143.5,289.5c-4.1,0-7.5-3.4-7.5-7.5v-4c0-4.1,3.4-7.5,7.5-7.5s7.5,3.4,7.5,7.5v4
			C151,286.1,147.6,289.5,143.5,289.5z"/>
	</g>
	<g>
		<path class="st1" d="M143.5,252.7c-4.1,0-7.5-3.4-7.5-7.5v-24.6c0-4.1,3.4-7.5,7.5-7.5s7.5,3.4,7.5,7.5v24.6
			C151,249.3,147.6,252.7,143.5,252.7z"/>
	</g>
</g>
<path class="st2" d="M111.3,497.8h247.4c65.2,0,118.1-52.9,118.1-118.1v-50.2H19.4v76.4C19.4,456.7,60.6,497.8,111.3,497.8z"/>
<path class="st2" d="M67.5,329.5V162.9c0-25.9,21-46.9,46.9-46.9h45.3v37.2"/>
<path class="st3" d="M188.9,188.8h-58.2v-6.5c0-16.1,13-29.1,29.1-29.1l0,0c16.1,0,29.1,13,29.1,29.1L188.9,188.8L188.9,188.8z"/>
<path class="st2" d="M27.1,397.6c0,0,49.3-25.9,149.3-25.9s138.7,53.1,193.8,53.1"/>
<path class="st2" d="M441.3,413.7c0,0,19.4-4.8,35.6-27.4"/>
</svg>
