<?xml version="1.0" encoding="utf-8"?>
<!-- Generator: Adobe Illustrator 21.0.0, SVG Export Plug-In . SVG Version: 6.00 Build 0)  -->
<svg version="1.1" id="Calque_1" xmlns="http://www.w3.org/2000/svg" xmlns:xlink="http://www.w3.org/1999/xlink" x="0px" y="0px"
	 viewBox="0 0 24.9 29" style="enable-background:new 0 0 24.9 29;" xml:space="preserve" width="25px" height="29px">
<style type="text/css">
	.st0{fill:#002850;}
</style>
<g id="calculator" transform="translate(-4.5 -2.25)">
	<path id="Tracé_240" class="st0" d="M27.3,4.3v24.9H6.6V4.3H27.3 M27.3,2.3H6.6c-1.1,0-2.1,0.9-2.1,2.1v24.9
		c0,1.1,0.9,2.1,2.1,2.1h20.7c1.1,0,2.1-0.9,2.1-2.1V4.3C29.4,3.2,28.4,2.3,27.3,2.3z"/>
	<path id="Tracé_241" class="st0" d="M9.7,24h2.1v2.1H9.7V24z"/>
	<path id="Tracé_242" class="st0" d="M22.1,24h2.1v2.1h-2.1V24z"/>
	<path id="Tracé_243" class="st0" d="M9.7,18.8h2.1v2.1H9.7V18.8z"/>
	<path id="Tracé_244" class="st0" d="M22.1,18.8h2.1v2.1h-2.1V18.8z"/>
	<path id="Tracé_245" class="st0" d="M9.7,13.6h2.1v2.1H9.7V13.6z"/>
	<path id="Tracé_246" class="st0" d="M15.9,24H18v2.1h-2.1V24z"/>
	<path id="Tracé_247" class="st0" d="M15.9,18.8H18v2.1h-2.1V18.8z"/>
	<path id="Tracé_248" class="st0" d="M15.9,13.6H18v2.1h-2.1V13.6z"/>
	<path id="Tracé_249" class="st0" d="M22.1,13.6h2.1v2.1h-2.1V13.6z"/>
	<path id="Tracé_250" class="st0" d="M9.7,7.4h14.5v3.1H9.7V7.4z"/>
</g>
</svg>
