<svg xmlns="http://www.w3.org/2000/svg" width="26.667" height="20" viewBox="0 0 26.667 20">
  <g id="card-checklist" transform="translate(0 -4.5)">
    <path id="Tracé_260" data-name="Tracé 260" d="M24.167,6.167H2.5A.833.833,0,0,0,1.667,7V22a.833.833,0,0,0,.833.833H24.167A.833.833,0,0,0,25,22V7A.833.833,0,0,0,24.167,6.167ZM2.5,4.5A2.5,2.5,0,0,0,0,7V22a2.5,2.5,0,0,0,2.5,2.5H24.167a2.5,2.5,0,0,0,2.5-2.5V7a2.5,2.5,0,0,0-2.5-2.5Z" transform="translate(0 0)" fill="#002850" fill-rule="evenodd"/>
    <path id="Tracé_261" data-name="Tracé 261" d="M13.212,11.791a.833.833,0,0,1,.833-.833h8.333a.833.833,0,1,1,0,1.667H14.045A.833.833,0,0,1,13.212,11.791Zm-2.493-1.423a.833.833,0,0,1,0,1.18l-2.5,2.5a.833.833,0,0,1-1.18,0l-.833-.833a.834.834,0,1,1,1.18-1.18l.243.245,1.91-1.912a.833.833,0,0,1,1.18,0Zm2.493,8.09a.833.833,0,0,1,.833-.833h8.333a.833.833,0,1,1,0,1.667H14.045A.833.833,0,0,1,13.212,18.458Zm-2.493-1.423a.833.833,0,0,1,0,1.18l-2.5,2.5a.833.833,0,0,1-1.18,0l-.833-.833a.834.834,0,1,1,1.18-1.18l.243.245,1.91-1.912a.833.833,0,0,1,1.18,0Z" transform="translate(-1.545 -1.458)" fill="#002850" fill-rule="evenodd"/>
  </g>
</svg>
