<?xml version="1.0" encoding="utf-8"?>
<!-- Generator: Adobe Illustrator 25.0.0, SVG Export Plug-In . SVG Version: 6.00 Build 0)  -->
<svg version="1.1" id="Capa_1" xmlns="http://www.w3.org/2000/svg" xmlns:xlink="http://www.w3.org/1999/xlink" x="0px" y="0px" width="65px" height='65px'
	 viewBox="0 0 512 512" style="enable-background:new 0 0 512 512;" xml:space="preserve">
<style type="text/css">
	.st0{fill:#002850;}
	.st1{fill:#FFD600;}
</style>
<g>
	<path class="st0" d="M256,421.3c-91.1,0-165.3-74.2-165.3-165.3c0-91.1,74.2-165.3,165.3-165.3S421.3,164.9,421.3,256
		C421.3,347.1,347.1,421.3,256,421.3z M256,107.5c-81.9,0-148.5,66.6-148.5,148.5S174.1,404.5,256,404.5S404.5,337.9,404.5,256
		S337.9,107.5,256,107.5z"/>
</g>
<g>
	<path class="st0" d="M256,465c-115.2,0-209-93.7-209-209S140.8,47,256,47s209,93.7,209,209S371.2,465,256,465z M256,63.8
		C150,63.8,63.8,150,63.8,256S150,448.2,256,448.2S448.2,362,448.2,256S362,63.8,256,63.8z"/>
</g>
<g>
	<path class="st1" d="M289.8,368.8C227.6,368.8,177,318.2,177,256c0-62.2,50.6-112.8,112.8-112.8c5.5,0,10,4.5,10,10s-4.5,10-10,10
		c-51.2,0-92.8,41.6-92.8,92.8c0,51.2,41.6,92.8,92.8,92.8c5.5,0,10,4.5,10,10S295.3,368.8,289.8,368.8z"/>
</g>
<g>
	<path class="st1" d="M260.5,243.7h-106c-5.5,0-10-4.5-10-10s4.5-10,10-10h106c5.5,0,10,4.5,10,10S266,243.7,260.5,243.7z"/>
</g>
<g>
	<path class="st1" d="M260.5,286.9h-106c-5.5,0-10-4.5-10-10s4.5-10,10-10h106c5.5,0,10,4.5,10,10S266,286.9,260.5,286.9z"/>
</g>
</svg>
