<svg xmlns="http://www.w3.org/2000/svg" width="45.904" height="45.904" viewBox="0 0 45.904 45.904">
  <path id="Icon_ionic-md-close" data-name="Icon ionic-md-close" d="M53.428,12.114l-4.59-4.59L30.476,25.885,12.114,7.523l-4.59,4.59L25.885,30.476,7.523,48.838l4.59,4.59L30.476,35.066,48.838,53.428l4.59-4.59L35.066,30.476Z" transform="translate(-7.523 -7.523)" fill="#fff"/>
</svg>
