<?xml version="1.0" encoding="utf-8"?>
<!-- Generator: Adobe Illustrator 25.0.0, SVG Export Plug-In . SVG Version: 6.00 Build 0)  -->
<svg version="1.1" id="Capa_1" xmlns="http://www.w3.org/2000/svg" xmlns:xlink="http://www.w3.org/1999/xlink" x="0px" y="0px"
	 viewBox="0 0 512 512" style="enable-background:new 0 0 512 512;" xml:space="preserve">
<style type="text/css">
	.st0{fill:none;stroke:#002850;stroke-width:13.862;stroke-linejoin:round;stroke-miterlimit:10;}
	.st1{fill:#FFFFFF;stroke:#002850;stroke-width:13.862;stroke-linejoin:round;stroke-miterlimit:10;}
	.st2{fill:#FFFFFF;}
	.st3{fill:#002850;}
	.st4{fill:#FFD600;}
</style>
<rect x="324" y="424.8" class="st0" width="38.9" height="25.5"/>
<rect x="362.8" y="424.8" class="st0" width="59.9" height="25.5"/>
<rect x="392.8" y="399.2" class="st1" width="59.9" height="25.5"/>
<path class="st2" d="M119.2,248.1c0-0.4,0.3-0.8,0.8-0.8h106.7c0.4,0,0.8,0.3,0.8,0.8v169.5H119.2V248.1z"/>
<g>
	<g>
		<path class="st3" d="M205.3,313.8c-4,0-7.3,3.2-7.3,7.3v15c0,4,3.2,7.3,7.3,7.3s7.3-3.2,7.3-7.3v-15
			C212.6,317.1,209.3,313.8,205.3,313.8z"/>
	</g>
</g>
<g>
	<path class="st3" d="M24.9,225.6c4.8,0,9.6-1.4,13.8-4.2L61,206.6v128.6c0,3.7,2.6,7,6.3,7.5c4.4,0.6,8.3-2.9,8.3-7.2V197
		L247.8,82.3L420.1,197v35.5c0,4,3.3,7.3,7.3,7.3l0,0c4,0,7.3-3.3,7.3-7.3v-25.8l22.3,14.8c8.4,5.6,19.2,5.6,27.6,0
		c7.8-5.1,12-14.2,10.9-23.5c-0.8-7.4-5.1-14-11.3-18.2l-57-38c-2.8-1.9-6.6-1.8-9.1,0.5c-3.6,3.2-3,9,0.8,11.5l57.6,38.3
		c2.9,2,4.6,5.1,4.6,8.6s-1.7,6.7-4.6,8.6c-3.5,2.3-8,2.3-11.5,0L254.9,69.6c-0.2-0.1-0.5-0.3-0.7-0.4l-0.1-0.1
		c-0.2-0.1-0.5-0.3-0.7-0.4c0,0-0.1,0-0.1-0.1c-0.3-0.1-0.5-0.2-0.8-0.3c0,0,0,0-0.1,0c-0.1-0.1-0.3-0.1-0.4-0.1
		c-3.7-1.3-7.8-0.8-11.2,1.4L30.6,209.3c-3.5,2.3-8,2.3-11.5,0c-2.9-2-4.6-5.1-4.6-8.6s1.7-6.7,4.6-8.6L247.8,40L381,128.6
		c3.3,2.2,7.9,1.3,10.1-2s1.3-7.9-2-10.1L254.9,27.2c-4.3-2.9-9.8-2.9-14.1,0l-68.6,45.7V61h2.1c5.2,0,9.5-4.2,9.5-9.5v-22
		c0-5.2-4.2-9.5-9.5-9.5H97.4c-5.2,0-9.5,4.2-9.5,9.5v22c0,5.2,4.2,9.5,9.5,9.5h2.1v60.2L11.1,180C4.2,184.6,0,192.3,0,200.7
		s4.2,16.1,11.1,20.7C15.3,224.2,20.1,225.6,24.9,225.6z M157.6,82.5l-43.6,29V61h43.6V82.5z M102.5,34.6h66.6v11.8h-66.6
		C102.5,46.4,102.5,34.6,102.5,34.6z"/>
	<path class="st3" d="M264.1,443.4H31c-3.1,0-5.6-2.5-5.6-5.6s2.5-5.6,5.6-5.6h233.1v-14.6H242V248.1c0-8.5-6.9-15.3-15.3-15.3H120
		c-8.5,0-15.3,6.9-15.3,15.3v169.5H75.5V381c0-4-3.3-7.3-7.3-7.3s-7.3,3.3-7.3,7.3v36.6H31c-11.1,0-20.2,9.1-20.2,20.2
		S19.9,458,31,458h233.1V443.4z M119.2,248.1c0-0.4,0.3-0.8,0.8-0.8h106.7c0.4,0,0.8,0.3,0.8,0.8v169.5H119.2V248.1z"/>
</g>
<rect x="264.1" y="424.8" class="st1" width="59.9" height="25.5"/>
<rect x="294" y="399.2" class="st0" width="59.9" height="25.5"/>
<g>
	<path class="st4" d="M362.4,406h-59.9c-3.8,0-6.9-3.1-6.9-6.9v-25.5c0-3.8,3.1-6.9,6.9-6.9h59.9c3.8,0,6.9,3.1,6.9,6.9v25.5
		C369.3,402.9,366.2,406,362.4,406z M309.4,392.2h46v-11.6h-46V392.2z"/>
</g>
<g>
	<rect x="353.9" y="399.2" class="st2" width="38.9" height="25.5"/>
	<path class="st4" d="M392.8,431.6h-38.9c-3.8,0-6.9-3.1-6.9-6.9v-25.5c0-3.8,3.1-6.9,6.9-6.9h38.9c3.8,0,6.9,3.1,6.9,6.9v25.5
		C399.7,428.5,396.6,431.6,392.8,431.6z M360.8,417.8h25v-11.6h-25V417.8z"/>
</g>
<g>
	<rect x="263.7" y="373.6" class="st2" width="38.9" height="25.5"/>
	<path class="st4" d="M302.6,406h-38.9c-3.8,0-6.9-3.1-6.9-6.9v-25.5c0-3.8,3.1-6.9,6.9-6.9h38.9c3.8,0,6.9,3.1,6.9,6.9v25.5
		C309.5,402.9,306.4,406,302.6,406z M270.6,392.2h25v-11.6h-25V392.2z"/>
</g>
</svg>
