<svg xmlns="http://www.w3.org/2000/svg" width="293" height="37.381" viewBox="0 0 293 37.381">
  <path id="Tracé_186" data-name="Tracé 186" d="M6651,1480s137-68,285,0" transform="translate(-6646.979 -1446.64)" fill="none" stroke="#002850" stroke-linecap="round" stroke-width="6" stroke-dasharray="1 15"/>
</svg>
