<svg xmlns="http://www.w3.org/2000/svg" width="101.165" height="86.953" viewBox="0 0 101.165 86.953">
  <g id="_006-briefcase" data-name="006-briefcase" transform="translate(0 -35.964)">
    <g id="Groupe_2942" data-name="Groupe 2942" transform="translate(0 35.964)">
      <g id="Groupe_2941" data-name="Groupe 2941">
        <path id="Tracé_4400" data-name="Tracé 4400" d="M94.565,51.41H84.615a1.44,1.44,0,0,0,0,2.88h9.951a3.724,3.724,0,0,1,3.719,3.719v3.1H2.879v-3.1A3.723,3.723,0,0,1,6.6,54.289H75.669a1.44,1.44,0,0,0,0-2.88H71.026V45.491A9.538,9.538,0,0,0,61.5,35.964H39.665a9.538,9.538,0,0,0-9.527,9.527V51.41H6.6a6.606,6.606,0,0,0-6.6,6.6v58.309a6.606,6.606,0,0,0,6.6,6.6H94.566a6.606,6.606,0,0,0,6.6-6.6V58.009A6.607,6.607,0,0,0,94.565,51.41Zm-31.516,0H38.115V45.491a1.552,1.552,0,0,1,1.55-1.55H61.5a1.552,1.552,0,0,1,1.55,1.55ZM39.665,38.843H61.5a6.655,6.655,0,0,1,6.647,6.647V51.41H65.929V45.491a4.435,4.435,0,0,0-4.43-4.43H39.665a4.435,4.435,0,0,0-4.43,4.43V51.41H33.018V45.491h0A6.655,6.655,0,0,1,39.665,38.843Zm58.62,71.442H17.227a1.44,1.44,0,1,0,0,2.88H98.285v3.1a3.724,3.724,0,0,1-3.719,3.719H6.6a3.723,3.723,0,0,1-3.719-3.719v-3.1H8.231a1.44,1.44,0,0,0,0-2.88H2.879v-46.3H98.285Z" transform="translate(0 -35.964)" fill="#fff"/>
      </g>
    </g>
    <g id="Groupe_2944" data-name="Groupe 2944" transform="translate(39.342 77.173)">
      <g id="Groupe_2943" data-name="Groupe 2943">
        <path id="Tracé_4401" data-name="Tracé 4401" d="M220.721,252.624l-8.738-7.493a2.489,2.489,0,0,0-3.257,0l-8.738,7.493a2.5,2.5,0,0,0-.873,1.9v10.74a2.5,2.5,0,0,0,2.5,2.5H207a1.857,1.857,0,0,0,1.855-1.855v-8.289h3.007v8.289a1.857,1.857,0,0,0,1.855,1.855h5.379a2.5,2.5,0,0,0,2.5-2.5v-10.74A2.5,2.5,0,0,0,220.721,252.624Zm-2.006,12.262h-3.978v-7.9a2.243,2.243,0,0,0-2.24-2.24h-4.285a2.243,2.243,0,0,0-2.24,2.24v7.9h-3.978V254.7l8.361-7.169,8.361,7.169Z" transform="translate(-199.114 -244.525)" fill="#fff"/>
      </g>
    </g>
    <g id="Groupe_2946" data-name="Groupe 2946" transform="translate(29.518 66.099)">
      <g id="Groupe_2945" data-name="Groupe 2945" transform="translate(0 0)">
        <path id="Tracé_4402" data-name="Tracé 4402" d="M185.351,194.649a21.065,21.065,0,1,0,6.169,14.895A20.927,20.927,0,0,0,185.351,194.649ZM183.315,222.4a18.176,18.176,0,1,1,0-25.718A18.206,18.206,0,0,1,183.315,222.4Z" transform="translate(-149.392 -188.479)" fill="#fff"/>
      </g>
    </g>
    <g id="Groupe_2948" data-name="Groupe 2948" transform="translate(36.005 71.265)">
      <g id="Groupe_2947" data-name="Groupe 2947" transform="translate(0 0)">
        <path id="Tracé_4403" data-name="Tracé 4403" d="M210.876,225.709l-12.042-10.326a3.1,3.1,0,0,0-4.066,0l-12.042,10.326a1.44,1.44,0,1,0,1.874,2.186l12.043-10.326a.241.241,0,0,1,.316,0L209,227.895a1.44,1.44,0,0,0,1.874-2.186Z" transform="translate(-182.223 -214.625)" fill="#fff"/>
      </g>
    </g>
  </g>
</svg>
