<svg xmlns="http://www.w3.org/2000/svg" width="70.301" height="76.349" viewBox="0 0 70.301 76.349">
  <g id="_008-mailbox" data-name="008-mailbox" transform="translate(-20.079 0)">
    <path id="Tracé_4425" data-name="Tracé 4425" d="M90.38,28.194a3.64,3.64,0,0,0-1.431-2.884l-3.481-2.643V8.128a1.816,1.816,0,0,0-1.814-1.814H74.574a1.13,1.13,0,1,0,0,2.259h8.634V33.115l-12.07,7.9V36.051a2.148,2.148,0,0,0,2.127-.846L74.9,32.967a2.156,2.156,0,0,0-.468-3.009L57.922,17.891a4.548,4.548,0,0,0-5.385,0L36.026,29.958a2.156,2.156,0,0,0-.468,3.009L37.193,35.2a2.139,2.139,0,0,0,1.408.857,2.18,2.18,0,0,0,.336.026,2.131,2.131,0,0,0,.535-.069V41.09L27.25,33.177V8.573H69.761a1.13,1.13,0,0,0,0-2.259H63.926L55.912.23a1.13,1.13,0,0,0-1.366,0L46.532,6.314H26.805a1.816,1.816,0,0,0-1.814,1.814v14.54L21.51,25.311a3.64,3.64,0,0,0-1.431,2.884V46.817a1.13,1.13,0,1,0,2.259,0V32.689L48.809,49.827,22.338,67.149V51.631a1.13,1.13,0,0,0-2.259,0V73.116a3.237,3.237,0,0,0,3.233,3.233H87.147a3.237,3.237,0,0,0,3.233-3.233V28.194ZM55.229,2.548,60.19,6.314H50.269ZM50.876,48.474l-.336-.217V44.183a4.689,4.689,0,1,1,9.378,0v4.109c0,.019,0,.037,0,.056l-.2.13-2.594-1.705a3.322,3.322,0,0,0-3.645,0ZM88.121,32.6V67.143L61.78,49.83Zm-2.653-7.1,2.115,1.606a1.369,1.369,0,0,1,.538,1.084V29.9l-2.653,1.735ZM37.444,31.719l16.426-12a2.3,2.3,0,0,1,2.719,0l16.426,12L71.5,33.786l-15-10.965a2.146,2.146,0,0,0-2.541,0l-15,10.965Zm4.286,2.837,13.5-9.865,13.65,9.976v7.822l-6.7,4.384V44.183a6.948,6.948,0,1,0-13.9,0v2.611L41.73,42.553ZM22.338,28.194a1.369,1.369,0,0,1,.538-1.084L24.991,25.5v6.21L22.338,30Zm64.809,45.9H23.312a.975.975,0,0,1-.974-.974V69.848L54.719,48.659a1.064,1.064,0,0,1,1.167,0L88.121,69.847v3.269A.975.975,0,0,1,87.147,74.089Z" transform="translate(0 0)" fill="#fff"/>
    <path id="Tracé_4426" data-name="Tracé 4426" d="M142.117,82.405a1.13,1.13,0,1,0,0,2.259h8.835a2.033,2.033,0,0,0,2.03-2.03V77.126a2.033,2.033,0,0,0-2.03-2.03H111.48a2.033,2.033,0,0,0-2.03,2.03v5.508a2.033,2.033,0,0,0,2.03,2.03h8.684a1.13,1.13,0,0,0,0-2.259h-8.456v-5.05h39.015v5.05Z" transform="translate(-75.912 -63.787)" fill="#fff"/>
  </g>
</svg>
