<svg xmlns="http://www.w3.org/2000/svg" width="73.727" height="95.784" viewBox="0 0 73.727 95.784">
  <g id="_004-contract-1" data-name="004-contract-1" transform="translate(-58.95)">
    <g id="Groupe_322" data-name="Groupe 322" transform="translate(67.763 42.94)">
      <g id="Groupe_321" data-name="Groupe 321">
        <path id="Tracé_197" data-name="Tracé 197" d="M160.978,229.53H107.421a1.363,1.363,0,1,0,0,2.726h53.557a1.363,1.363,0,1,0,0-2.726Z" transform="translate(-106.058 -229.53)" fill="#fff"/>
      </g>
    </g>
    <g id="Groupe_324" data-name="Groupe 324" transform="translate(67.763 57.006)">
      <g id="Groupe_323" data-name="Groupe 323">
        <path id="Tracé_198" data-name="Tracé 198" d="M132.762,304.72h-25.34a1.363,1.363,0,1,0,0,2.726h25.34a1.363,1.363,0,0,0,0-2.726Z" transform="translate(-106.058 -304.72)" fill="#fff"/>
      </g>
    </g>
    <g id="Groupe_326" data-name="Groupe 326" transform="translate(67.763 85.139)">
      <g id="Groupe_325" data-name="Groupe 325">
        <path id="Tracé_199" data-name="Tracé 199" d="M138.305,455.1H107.421a1.363,1.363,0,1,0,0,2.726h30.884a1.363,1.363,0,0,0,0-2.726Z" transform="translate(-106.058 -455.098)" fill="#fff"/>
      </g>
    </g>
    <g id="Groupe_328" data-name="Groupe 328" transform="translate(67.445 8.358)">
      <g id="Groupe_327" data-name="Groupe 327" transform="translate(0)">
        <path id="Tracé_200" data-name="Tracé 200" d="M129.451,55.756l-11.4-10.708a1.363,1.363,0,0,0-1.866,0l-11.4,10.708a1.363,1.363,0,1,0,1.866,1.987l10.466-9.831,10.465,9.831a1.363,1.363,0,1,0,1.866-1.987Z" transform="translate(-104.358 -44.678)" fill="#fff"/>
      </g>
    </g>
    <g id="Groupe_330" data-name="Groupe 330" transform="translate(70.976 14.029)">
      <g id="Groupe_329" data-name="Groupe 329">
        <path id="Tracé_201" data-name="Tracé 201" d="M140.985,82.156,134.008,75.6a2.258,2.258,0,0,0-3.086,0l-6.977,6.554a2.261,2.261,0,0,0-.711,1.643v9.535a2.256,2.256,0,0,0,2.254,2.254h13.955a2.256,2.256,0,0,0,2.254-2.254V83.8A2.262,2.262,0,0,0,140.985,82.156Zm-7.521,10.7h-2V88.135h2Zm5.5,0H136.19V87.271a1.865,1.865,0,0,0-1.863-1.863H130.6a1.864,1.864,0,0,0-1.862,1.863V92.86H125.96V84h0l6.5-6.11,6.5,6.11Z" transform="translate(-123.234 -74.992)" fill="#fff"/>
      </g>
    </g>
    <g id="Groupe_332" data-name="Groupe 332" transform="translate(58.95)">
      <g id="Groupe_331" data-name="Groupe 331" transform="translate(0)">
        <path id="Tracé_202" data-name="Tracé 202" d="M131.314,38.855a1.363,1.363,0,0,0-1.363,1.363V92.953a.105.105,0,0,1-.105.1H61.781a.105.105,0,0,1-.105-.1V2.831a.105.105,0,0,1,.105-.1h46.4V21.613a2.884,2.884,0,0,0,2.88,2.88h18.886v7.163a1.363,1.363,0,0,0,2.726,0V23.13c0-.016,0-.031,0-.046s0-.03,0-.046a1.364,1.364,0,0,0-.022-.173.005.005,0,0,1,0,0,1.358,1.358,0,0,0-.047-.17c0-.014-.01-.028-.015-.042a1.361,1.361,0,0,0-.068-.154l0-.008a1.362,1.362,0,0,0-.094-.15L132.4,22.3a1.355,1.355,0,0,0-.118-.138L110.511.4a1.349,1.349,0,0,0-.138-.118l-.036-.027a1.382,1.382,0,0,0-.149-.094l-.01,0a1.359,1.359,0,0,0-.152-.067l-.044-.016a1.361,1.361,0,0,0-.168-.046h-.007A1.381,1.381,0,0,0,109.641,0l-.049,0-.044,0H61.781A2.834,2.834,0,0,0,58.95,2.831V92.953a2.834,2.834,0,0,0,2.831,2.831h68.064a2.835,2.835,0,0,0,2.831-2.831V40.218A1.363,1.363,0,0,0,131.314,38.855Zm-20.4-34.2,17.112,17.112H111.065a.154.154,0,0,1-.154-.154Z" transform="translate(-58.95)" fill="#fff"/>
      </g>
    </g>
    <g id="Groupe_334" data-name="Groupe 334" transform="translate(98 50.959)">
      <g id="Groupe_333" data-name="Groupe 333">
        <path id="Tracé_203" data-name="Tracé 203" d="M297.24,288.3a.884.884,0,0,1,0-1.233,3.614,3.614,0,0,0-1.6-5.984.884.884,0,0,1-.616-1.068,3.614,3.614,0,0,0-4.381-4.38.883.883,0,0,1-1.068-.617,3.614,3.614,0,0,0-5.984-1.6.884.884,0,0,1-1.233,0,3.613,3.613,0,0,0-5.984,1.6.884.884,0,0,1-1.068.616,3.614,3.614,0,0,0-4.381,4.38.884.884,0,0,1-.616,1.068,3.613,3.613,0,0,0-1.6,5.984.884.884,0,0,1,0,1.233,3.613,3.613,0,0,0,1.6,5.984.884.884,0,0,1,.616,1.067,3.614,3.614,0,0,0,4.381,4.381.89.89,0,0,1,.379-.009V311.56a1.6,1.6,0,0,0,2.6,1.264l4.692-3.677,4.692,3.676a1.606,1.606,0,0,0,2.6-1.264V299.719a.886.886,0,0,1,.379.009,3.614,3.614,0,0,0,4.381-4.381.884.884,0,0,1,.616-1.068,3.613,3.613,0,0,0,1.6-5.984Zm-14.268,17.821a1.6,1.6,0,0,0-.99.343l-3.572,2.8v-6.593l.022.009c.054.023.109.043.165.064l.07.026c.08.027.161.053.243.075l.046.011c.063.016.126.031.189.044l.057.01c.06.011.119.022.178.03l.073.007c.054.006.108.012.162.016l.084,0c.05,0,.1,0,.151.005h.028c.1,0,.19-.006.284-.014l.071-.007c.1-.011.2-.024.3-.044l.016,0c.1-.019.189-.042.282-.069l.068-.02c.1-.03.194-.063.289-.1l.01,0c.091-.037.18-.079.268-.124l.066-.034c.09-.048.18-.1.266-.156l.006,0c.084-.055.166-.115.246-.178l.062-.049c.081-.066.161-.135.237-.208a.884.884,0,0,1,1.233,0c.065.063.132.122.2.179a3.575,3.575,0,0,0,3.083.75c.054-.012.108-.023.162-.038l.013,0q.116-.032.229-.07l.079-.03c.052-.019.1-.039.156-.06l.024-.009v6.592l-3.572-2.8A1.6,1.6,0,0,0,282.972,306.117Zm12.307-15.927a.888.888,0,0,1-.393,1.47,3.6,3.6,0,0,0-2.51,4.348.888.888,0,0,1-1.076,1.076,3.6,3.6,0,0,0-4.13,1.944c-.026.055-.051.11-.075.165-.014.035-.029.07-.042.1-.037.1-.072.2-.1.3a.881.881,0,0,1-.482.561.91.91,0,0,1-.141.051.947.947,0,0,1-.316.026.851.851,0,0,1-.53-.245,3.6,3.6,0,0,0-5.021,0,.939.939,0,0,1-.1.085l-.02.016-.022.013a.844.844,0,0,1-.185.089.874.874,0,0,1-.332.044.973.973,0,0,1-.183-.028.873.873,0,0,1-.623-.612c-.025-.089-.055-.175-.087-.262-.014-.039-.031-.077-.046-.115s-.034-.082-.052-.122-.051-.109-.078-.162l-.024-.045a3.593,3.593,0,0,0-3.174-1.914,3.668,3.668,0,0,0-.886.109.887.887,0,0,1-1.076-1.076,3.6,3.6,0,0,0-2.51-4.348.887.887,0,0,1-.394-1.469,3.6,3.6,0,0,0,0-5.021.887.887,0,0,1,.394-1.469,3.6,3.6,0,0,0,2.51-4.348.887.887,0,0,1,1.076-1.075,3.6,3.6,0,0,0,4.348-2.51.887.887,0,0,1,1.469-.394,3.6,3.6,0,0,0,5.021,0,.887.887,0,0,1,1.469.394,3.6,3.6,0,0,0,4.348,2.51.887.887,0,0,1,1.076,1.076,3.6,3.6,0,0,0,2.51,4.348.887.887,0,0,1,.394,1.469A3.6,3.6,0,0,0,295.279,290.19Z" transform="translate(-267.687 -272.395)" fill="#fff"/>
      </g>
    </g>
    <g id="Groupe_336" data-name="Groupe 336" transform="translate(103.908 56.866)">
      <g id="Groupe_335" data-name="Groupe 335">
        <path id="Tracé_204" data-name="Tracé 204" d="M315.277,306.715a9.378,9.378,0,1,0,0,13.268h0A9.392,9.392,0,0,0,315.277,306.715Zm-1.928,11.34a6.652,6.652,0,1,1,0-9.412A6.663,6.663,0,0,1,313.349,318.056Z" transform="translate(-299.265 -303.972)" fill="#fff"/>
      </g>
    </g>
    <g id="Groupe_338" data-name="Groupe 338" transform="translate(80.715 71.072)">
      <g id="Groupe_337" data-name="Groupe 337" transform="translate(0)">
        <path id="Tracé_205" data-name="Tracé 205" d="M189.211,379.908H176.657a1.363,1.363,0,1,0,0,2.726h12.554a1.363,1.363,0,0,0,0-2.726Z" transform="translate(-175.294 -379.908)" fill="#fff"/>
      </g>
    </g>
    <g id="Groupe_340" data-name="Groupe 340" transform="translate(67.869 71.073)">
      <g id="Groupe_339" data-name="Groupe 339">
        <path id="Tracé_206" data-name="Tracé 206" d="M112.365,379.909h-4.377a1.363,1.363,0,1,0,0,2.726h4.377a1.363,1.363,0,1,0,0-2.726Z" transform="translate(-106.625 -379.909)" fill="#fff"/>
      </g>
    </g>
  </g>
</svg>
