<svg xmlns="http://www.w3.org/2000/svg" width="87.133" height="91.219" viewBox="0 0 87.133 91.219">
  <g id="_002-auction" data-name="002-auction" transform="translate(-11.469 0)">
    <g id="Groupe_310" data-name="Groupe 310" transform="translate(12.555 0)">
      <g id="Groupe_309" data-name="Groupe 309" transform="translate(0)">
        <path id="Tracé_191" data-name="Tracé 191" d="M102.513,74.725,81.387,53.6a3.741,3.741,0,0,0-4.289-.719L61.653,37.435l2.791-2.791a3.7,3.7,0,0,0,.21-5l1.868-1.867.095.095a4.034,4.034,0,0,0,5.7,0l3.159-3.159a4.034,4.034,0,0,0,0-5.7L65.558,9.1a1.321,1.321,0,1,0-1.868,1.868l9.916,9.916a1.389,1.389,0,0,1,0,1.963l-3.159,3.159a1.389,1.389,0,0,1-1.963,0l-1.029-1.029L50.645,8.168a1.389,1.389,0,0,1,0-1.963L53.8,3.046a1.39,1.39,0,0,1,1.963,0l2.1,2.1a1.321,1.321,0,0,0,1.868-1.868l-2.1-2.1a4.034,4.034,0,0,0-5.7,0L48.777,4.337a4.034,4.034,0,0,0,0,5.7l.095.095L47,12a3.693,3.693,0,0,0-5,.211L29.775,24.441a3.7,3.7,0,0,0-.21,5L27.7,31.305,27.6,31.21a4.034,4.034,0,0,0-5.7,0l-3.159,3.159a4.029,4.029,0,0,0,0,5.7L36.584,57.907a4.034,4.034,0,0,0,5.7,0l3.159-3.159a4.034,4.034,0,0,0,0-5.7l-.095-.095,1.868-1.868a3.7,3.7,0,0,0,5-.21L55,44.086,70.448,59.533a3.753,3.753,0,0,0,.718,4.288L92.292,84.947a3.754,3.754,0,0,0,5.3,0l4.919-4.919a3.749,3.749,0,0,0,0-5.3ZM50.739,12,64.654,25.913,62.8,27.769,48.883,13.855ZM43.574,52.88l-3.159,3.159a1.389,1.389,0,0,1-1.963,0L20.613,38.2a1.388,1.388,0,0,1,0-1.963l3.159-3.159a1.39,1.39,0,0,1,1.963,0L43.574,50.917A1.39,1.39,0,0,1,43.574,52.88Zm-.094-5.793L29.565,33.173l1.856-1.856L45.336,45.231Zm6.863-2.078a1.057,1.057,0,0,1-1.493,0L31.643,27.8a1.057,1.057,0,0,1,0-1.493L43.876,14.076a1.055,1.055,0,0,1,1.493,0L62.575,31.283a1.057,1.057,0,0,1,0,1.493Zm6.527-2.791,1.458-1.458L59.785,39.3l15.3,15.3-2.915,2.915ZM100.645,78.16l-4.919,4.919a1.109,1.109,0,0,1-1.566,0L73.034,61.953a1.109,1.109,0,0,1,0-1.566l4.851-4.851.068-.068a1.107,1.107,0,0,1,1.566,0l21.126,21.126A1.109,1.109,0,0,1,100.645,78.16Z" transform="translate(-17.565 0)" fill="#fff"/>
      </g>
    </g>
    <g id="Groupe_312" data-name="Groupe 312" transform="translate(11.469 76.709)">
      <g id="Groupe_311" data-name="Groupe 311" transform="translate(0)">
        <path id="Tracé_192" data-name="Tracé 192" d="M65.316,430.556H30.409a1.321,1.321,0,0,0,0,2.641H65.317a4.777,4.777,0,0,1,4.772,4.772v4.455H14.111V437.97a4.777,4.777,0,0,1,4.772-4.772H22.2a1.321,1.321,0,0,0,0-2.641h-3.32a7.422,7.422,0,0,0-7.414,7.414v4.73a2.369,2.369,0,0,0,2.367,2.367H70.363A2.369,2.369,0,0,0,72.73,442.7v-4.73A7.421,7.421,0,0,0,65.316,430.556Z" transform="translate(-11.469 -430.556)" fill="#fff"/>
      </g>
    </g>
  </g>
</svg>
