<svg xmlns="http://www.w3.org/2000/svg" width="28.091" height="28.085" viewBox="0 0 28.091 28.085">
  <g id="Groupe_2891" data-name="Groupe 2891" transform="translate(-1712.157 -2496.642)">
    <path id="Icon_awesome-instagram" data-name="Icon awesome-instagram" d="M14.044,9.08a7.2,7.2,0,1,0,7.2,7.2A7.189,7.189,0,0,0,14.044,9.08Zm0,11.882a4.681,4.681,0,1,1,4.681-4.681,4.69,4.69,0,0,1-4.681,4.681ZM23.218,8.785a1.68,1.68,0,1,1-1.68-1.68A1.676,1.676,0,0,1,23.218,8.785Zm4.769,1.7a8.312,8.312,0,0,0-2.269-5.885,8.366,8.366,0,0,0-5.885-2.269c-2.319-.132-9.269-.132-11.588,0A8.354,8.354,0,0,0,2.362,4.6,8.339,8.339,0,0,0,.093,10.483c-.132,2.319-.132,9.269,0,11.588a8.312,8.312,0,0,0,2.269,5.885,8.377,8.377,0,0,0,5.885,2.269c2.319.132,9.269.132,11.588,0a8.312,8.312,0,0,0,5.885-2.269,8.366,8.366,0,0,0,2.269-5.885c.132-2.319.132-9.263,0-11.581Zm-3,14.069a4.74,4.74,0,0,1-2.67,2.67c-1.849.733-6.236.564-8.279.564s-6.436.163-8.279-.564a4.74,4.74,0,0,1-2.67-2.67c-.733-1.849-.564-6.236-.564-8.279S2.368,9.844,3.1,8a4.74,4.74,0,0,1,2.67-2.67C7.614,4.6,12,4.768,14.044,4.768s6.436-.163,8.279.564A4.74,4.74,0,0,1,24.992,8c.733,1.849.564,6.236.564,8.279S25.725,22.716,24.992,24.559Z" transform="translate(1712.162 2494.404)" fill="#fff"/>
  </g>
</svg>
