<svg xmlns="http://www.w3.org/2000/svg" width="32.083" height="27.5" viewBox="0 0 32.083 27.5">
  <g id="identification" transform="translate(-2.25 -4.5)">
    <path id="Tracé_227" data-name="Tracé 227" d="M32.042,6.792V29.708H4.542V6.792h27.5m0-2.292H4.542A2.292,2.292,0,0,0,2.25,6.792V29.708A2.292,2.292,0,0,0,4.542,32h27.5a2.292,2.292,0,0,0,2.292-2.292V6.792A2.292,2.292,0,0,0,32.042,4.5Z" transform="translate(0 0)" fill="#002850"/>
    <path id="Tracé_228" data-name="Tracé 228" d="M6.75,11.25h8.021v2.292H6.75Z" transform="translate(0.083 0.125)" fill="#002850"/>
    <path id="Tracé_229" data-name="Tracé 229" d="M6.75,15.75h4.583v2.292H6.75Z" transform="translate(0.083 0.208)" fill="#002850"/>
    <path id="Tracé_230" data-name="Tracé 230" d="M26.063,20.25H19.187a3.437,3.437,0,0,0-3.437,3.437v2.292h2.292V23.687a1.146,1.146,0,0,1,1.146-1.146h6.875a1.146,1.146,0,0,1,1.146,1.146v2.292H29.5V23.687A3.437,3.437,0,0,0,26.063,20.25Z" transform="translate(0.25 0.292)" fill="#002850"/>
    <path id="Tracé_231" data-name="Tracé 231" d="M22.583,19.292A4.583,4.583,0,1,0,18,14.708,4.583,4.583,0,0,0,22.583,19.292Zm0-6.875a2.292,2.292,0,1,1-2.292,2.292A2.292,2.292,0,0,1,22.583,12.417Z" transform="translate(0.292 0.104)" fill="#002850"/>
  </g>
</svg>
