<svg xmlns="http://www.w3.org/2000/svg" width="21.568" height="18.487" viewBox="0 0 21.568 18.487">
  <g id="identification" transform="translate(-2.25 -4.5)">
    <path id="Tracé_227" data-name="Tracé 227" d="M22.278,6.041V21.447H3.791V6.041H22.278m0-1.541H3.791A1.541,1.541,0,0,0,2.25,6.041V21.447a1.541,1.541,0,0,0,1.541,1.541H22.278a1.541,1.541,0,0,0,1.541-1.541V6.041A1.541,1.541,0,0,0,22.278,4.5Z" transform="translate(0)" fill="#a29f78"/>
    <path id="Tracé_228" data-name="Tracé 228" d="M6.75,11.25h5.392v1.541H6.75Z" transform="translate(-1.419 -2.128)" fill="#a29f78"/>
    <path id="Tracé_229" data-name="Tracé 229" d="M6.75,15.75H9.831v1.541H6.75Z" transform="translate(-1.419 -3.547)" fill="#a29f78"/>
    <path id="Tracé_230" data-name="Tracé 230" d="M22.683,20.25H18.061a2.311,2.311,0,0,0-2.311,2.311V24.1h1.541V22.561a.77.77,0,0,1,.77-.77h4.622a.77.77,0,0,1,.77.77V24.1h1.541V22.561A2.311,2.311,0,0,0,22.683,20.25Z" transform="translate(-4.256 -4.966)" fill="#a29f78"/>
    <path id="Tracé_231" data-name="Tracé 231" d="M21.081,16.287A3.081,3.081,0,1,0,18,13.206,3.081,3.081,0,0,0,21.081,16.287Zm0-4.622a1.541,1.541,0,1,1-1.541,1.541A1.541,1.541,0,0,1,21.081,11.666Z" transform="translate(-4.966 -1.774)" fill="#a29f78"/>
  </g>
</svg>
