<svg xmlns="http://www.w3.org/2000/svg" width="58.464" height="50.112" viewBox="0 0 58.464 50.112">
  <g id="identification" transform="translate(-2.25 -4.5)">
    <path id="Tracé_227" data-name="Tracé 227" d="M56.538,8.676v41.76H6.426V8.676H56.538m0-4.176H6.426A4.176,4.176,0,0,0,2.25,8.676v41.76a4.176,4.176,0,0,0,4.176,4.176H56.538a4.176,4.176,0,0,0,4.176-4.176V8.676A4.176,4.176,0,0,0,56.538,4.5Z" transform="translate(0 0)" fill="#a29f78"/>
    <path id="Tracé_228" data-name="Tracé 228" d="M6.75,11.25H21.366v4.176H6.75Z" transform="translate(3.852 5.778)" fill="#a29f78"/>
    <path id="Tracé_229" data-name="Tracé 229" d="M6.75,15.75H15.1v4.176H6.75Z" transform="translate(3.852 9.63)" fill="#a29f78"/>
    <path id="Tracé_230" data-name="Tracé 230" d="M34.542,20.25H22.014a6.264,6.264,0,0,0-6.264,6.264V30.69h4.176V26.514a2.088,2.088,0,0,1,2.088-2.088H34.542a2.088,2.088,0,0,1,2.088,2.088V30.69h4.176V26.514A6.264,6.264,0,0,0,34.542,20.25Z" transform="translate(11.556 13.482)" fill="#a29f78"/>
    <path id="Tracé_231" data-name="Tracé 231" d="M26.352,26.829A8.352,8.352,0,1,0,18,18.477,8.352,8.352,0,0,0,26.352,26.829Zm0-12.528a4.176,4.176,0,1,1-4.176,4.176A4.176,4.176,0,0,1,26.352,14.3Z" transform="translate(13.482 4.815)" fill="#a29f78"/>
  </g>
</svg>
