<?xml version="1.0" encoding="utf-8"?>
<!-- Generator: Adobe Illustrator 19.0.0, SVG Export Plug-In . SVG Version: 6.00 Build 0)  -->
<svg version="1.1" id="Capa_1" xmlns="http://www.w3.org/2000/svg" xmlns:xlink="http://www.w3.org/1999/xlink" x="30px" y="28px" width="30px" width="28px"
	 viewBox="193 398.4 30 28.3" style="enable-background:new 193 398.4 30 28.3;" xml:space="preserve" >
<style type="text/css">
	.st0{fill:#FFFFFF;}
	.st1{fill:#002850;}
</style>
<g>
	<g>
		<g>
			<path class="st0" d="M196.4,411.2c-1.6,0-2.9,1.3-2.9,2.9v9.2c0,1.6,1.3,2.9,2.9,2.9h3.4c0.6,0,1.2-0.2,1.7-0.6v-14.3H196.4z"/>
			<path class="st1" d="M199.9,426.7h-3.4c-1.9,0-3.4-1.5-3.4-3.4V414c0-1.9,1.5-3.4,3.4-3.4h5.7v15.2L202,426
				C201.4,426.4,200.6,426.7,199.9,426.7z M196.4,411.8c-1.3,0-2.3,1-2.3,2.3v9.2c0,1.3,1,2.3,2.3,2.3h3.4c0.4,0,0.8-0.1,1.1-0.3
				v-13.5H196.4z"/>
		</g>
	</g>
</g>
<g>
	<g>
		<g>
			<path class="st0" d="M222.4,415.2c0-0.7-0.3-1.4-0.8-1.9c0.6-0.6,0.8-1.4,0.8-2.3c-0.1-1.5-1.5-2.7-3.1-2.7H212
				c0.4-1.1,0.9-3.1,0.9-4.7c0-2.6-2.2-4.7-3.5-4.7c-1.2,0-2.1,0.7-2.1,0.7c-0.1,0.1-0.2,0.3-0.2,0.5v4l-3.4,7.4l-0.1,0.1v12.7
				c1,0.5,2.2,0.7,3,0.7h10.8c1.3,0,2.4-0.9,2.7-2.1c0.1-0.6,0.1-1.2-0.2-1.8c0.9-0.4,1.5-1.3,1.5-2.4c0-0.4-0.1-0.8-0.3-1.2
				C221.8,417.1,222.4,416.2,222.4,415.2z"/>
			<path class="st1" d="M217.3,425.5h-10.8c-0.8,0-2.1-0.2-3.2-0.8l-0.3-0.2v-13.4l0.3-0.1l3.3-7.1v-3.9c0-0.4,0.2-0.7,0.4-0.9l0,0
				c0.2-0.1,1.2-0.8,2.5-0.8c0.9,0,1.9,0.6,2.7,1.6c0.9,1.1,1.4,2.4,1.4,3.7c0,1.4-0.4,3-0.7,4.2h6.5c1.9,0,3.5,1.4,3.7,3.2
				c0.1,0.8-0.1,1.6-0.6,2.3c0.4,0.5,0.6,1.2,0.6,1.9c0,1-0.5,2-1.3,2.6c0.1,0.3,0.1,0.6,0.1,0.9c0,1-0.5,2-1.3,2.6
				c0.2,0.5,0.2,1.1,0.1,1.7C220.2,424.5,218.9,425.5,217.3,425.5z M204.1,423.9c0.8,0.3,1.8,0.5,2.4,0.5h10.8c1,0,1.9-0.7,2.1-1.6
				c0.1-0.5,0-1-0.2-1.4l-0.3-0.5l0.5-0.3c0.7-0.4,1.1-1.1,1.1-1.9c0-0.3-0.1-0.6-0.2-0.9l-0.3-0.5l0.5-0.3c0.7-0.4,1.1-1.1,1.1-1.9
				c0-0.6-0.2-1.1-0.6-1.5l-0.4-0.4l0.4-0.4c0.5-0.5,0.7-1.1,0.6-1.8c-0.1-1.2-1.2-2.2-2.5-2.2h-8.1l0.2-0.8c0.3-1,0.9-3,0.9-4.5
				c0-2.3-2-4.2-3-4.2c-1,0-1.7,0.5-1.8,0.6c0,0,0,0,0,0v4.1l-3.5,7.7l0,0V423.9z"/>
		</g>
	</g>
</g>
</svg>
