<?xml version="1.0" encoding="utf-8"?>
<!-- Generator: Adobe Illustrator 25.2.1, SVG Export Plug-In . SVG Version: 6.00 Build 0)  -->
<svg version="1.1" id="Calque_1" xmlns="http://www.w3.org/2000/svg" xmlns:xlink="http://www.w3.org/1999/xlink" x="0px" y="0px"
	 viewBox="0 0 186 57" style="enable-background:new 0 0 186 57;" xml:space="preserve">
<style type="text/css">
	.st0{fill:#FFFFFF;}
	.st1{fill:#2A7298;}
	.st2{fill:url(#SVGID_1_);}
	.st3{fill:url(#SVGID_2_);}
</style>
<g>
	<g>
		<g>
			<g>
				<g>
					<g>
						<path class="st0" d="M74.8,27.3c2,0,3.4,2.1,2.6,3.9c-1.2,2.6-3.8,4.1-7.9,4.1c-7.6,0-9.6-4.7-9.6-9.6s2-9.6,9.5-9.6
							c4.1,0,6.8,1.5,8,4c0.9,1.9-0.6,4-2.6,4l0,0c-1.2,0-2.2-0.7-2.6-1.8c-0.5-1.1-1.3-1.5-2.8-1.5c-2.9,0-3.7,1.7-3.7,4.8
							s0.7,4.9,3.7,4.9c1.5,0,2.4-0.5,2.8-1.6C72.5,27.9,73.6,27.3,74.8,27.3L74.8,27.3z"/>
						<path class="st0" d="M88.6,35.3c-7.4,0-9.3-4.8-9.3-9.6s2-9.6,9.3-9.6s9.3,4.7,9.3,9.6C98,30.5,96,35.3,88.6,35.3z M88.7,20.8
							c-2.9,0-3.8,1.9-3.8,4.8c0,3,0.9,4.9,3.8,4.9s3.9-1.9,3.9-4.9C92.5,22.7,91.7,20.8,88.7,20.8z"/>
						<path class="st0" d="M114.3,34l-0.9-2c-1.3,2.1-3.3,3.2-6.6,3.2c-4.4,0-7.7-1.8-7.7-5.7c0-3.6,2.4-5.1,7.6-5.6l4.9-0.5
							c0-2.1-0.8-3.3-3.3-3.3c-1.4,0-2.2,0.4-2.6,1.1c-0.5,0.9-1.4,1.5-2.4,1.5l0,0c-2.2,0-3.6-2.6-2.3-4.3c1.2-1.5,3.3-2.4,7.2-2.4
							c7.9,0,9.1,3.6,9.1,8.4v9c0,0.9-0.7,1.6-1.6,1.6l0,0C115.2,34.9,114.6,34.6,114.3,34z M108,27.6c-2.3,0.2-2.9,0.9-2.9,1.7
							c0,1.1,0.9,1.9,2.9,1.9c2.5,0,3.6-1.8,3.6-4.1L108,27.6z"/>
						<path class="st0" d="M133.9,27.3c2,0,3.4,2.1,2.6,3.9c-1.2,2.6-3.8,4.1-7.9,4.1c-7.6,0-9.6-4.7-9.6-9.6s2-9.6,9.5-9.6
							c4.2,0,6.8,1.5,8,4.1c0.9,1.8-0.6,3.9-2.6,3.9h-0.1c-1.1,0-2.2-0.7-2.6-1.7c-0.5-1.1-1.3-1.5-2.8-1.5c-2.9,0-3.7,1.7-3.7,4.8
							s0.7,4.9,3.7,4.9c1.5,0,2.4-0.5,2.8-1.6C131.6,27.9,132.8,27.3,133.9,27.3L133.9,27.3z"/>
						<path class="st0" d="M154.2,34.9c-1.6,0-2.8-1.3-2.8-2.8v-7.6c0-2.7-0.5-3.8-3.1-3.8s-3.3,1-3.3,3.8v7.6
							c0,1.6-1.3,2.8-2.8,2.8l0,0c-1.6,0-2.8-1.3-2.8-2.8V12c0-1.6,1.3-2.8,2.8-2.8l0,0c1.6,0,2.8,1.3,2.8,2.8v6.3
							c0.7-1.1,2.4-2.3,4.9-2.3c6.1,0,7.2,3.7,7.2,8.7V32C157.1,33.7,155.8,34.9,154.2,34.9L154.2,34.9z"/>
					</g>
					<g>
						<path class="st0" d="M42,34.7L42,34.7c-1.8,0-3.5-1.2-4-2.9l-2.3-7.1l-2.3,7.2c-0.5,1.7-2.1,2.8-3.9,2.8l0,0
							c-1.8,0-3.4-1.2-3.9-3L22.4,20c-0.5-1.8,0.9-3.7,2.8-3.7l0,0c1.4,0,2.5,0.9,2.8,2.3l1.7,7.8L32,19c0.5-1.6,2-2.7,3.6-2.7l0,0
							c1.6,0,3.1,1,3.6,2.6l2.5,7.6l1.9-8c0.3-1.3,1.5-2.2,2.8-2.2l0,0c1.9,0,3.3,1.8,2.8,3.7L46,31.6C45.6,33.4,43.9,34.7,42,34.7z
							"/>
					</g>
				</g>
			</g>
		</g>
		<g>
			<g>
				<g>
					<path class="st1" d="M79.7,44.1c0-1.1,0.8-1.9,1.9-1.9c0.6,0,1.1,0.2,1.4,0.6l-0.7,0.6c-0.1-0.2-0.4-0.3-0.7-0.3
						c-0.5,0-0.9,0.4-0.9,1s0.4,1,0.9,1c0.3,0,0.5-0.1,0.7-0.4l0.7,0.6c-0.3,0.4-0.8,0.6-1.4,0.6C80.4,46,79.7,45.2,79.7,44.1z"/>
					<path class="st1" d="M84,44.1c0-1.1,0.8-1.9,1.9-1.9s1.9,0.8,1.9,1.9c0,1.1-0.8,1.9-1.9,1.9S84,45.2,84,44.1z M86.8,44.1
						c0-0.6-0.4-1-0.9-1s-0.9,0.4-0.9,1s0.4,1,0.9,1S86.8,44.7,86.8,44.1z"/>
					<path class="st1" d="M92.3,43.8v2.1h-0.9v-0.5c-0.3,0.4-0.7,0.6-1.2,0.6c-0.6,0-1.2-0.4-1.2-1.1c0-0.8,0.7-1.1,1.4-1.1
						c0.3,0,0.6,0,0.9,0.1v-0.1c0-0.5-0.3-0.7-0.8-0.7c-0.3,0-0.7,0.1-1,0.3l-0.4-0.7c0.4-0.3,0.9-0.5,1.6-0.5
						C91.8,42.3,92.3,42.8,92.3,43.8z M91.3,44.5c-0.3-0.1-0.5-0.1-0.8-0.1c-0.4,0-0.6,0.1-0.6,0.4c0,0.3,0.2,0.4,0.5,0.4
						C90.9,45.2,91.3,44.9,91.3,44.5z"/>
					<path class="st1" d="M93.6,44.1c0-1.1,0.8-1.9,1.9-1.9c0.6,0,1.1,0.2,1.4,0.6l-0.7,0.6c-0.1-0.2-0.4-0.3-0.7-0.3
						c-0.5,0-0.9,0.4-0.9,1s0.4,1,0.9,1c0.3,0,0.5-0.1,0.7-0.4l0.7,0.6c-0.3,0.4-0.8,0.6-1.4,0.6C94.4,46,93.6,45.2,93.6,44.1z"/>
					<path class="st1" d="M101.6,43.6v2.3h-1v-2.1c0-0.4-0.3-0.7-0.7-0.7c-0.4,0-0.8,0.2-0.8,0.7v2.1h-1v-5.3h1v2.1
						c0.2-0.3,0.6-0.5,1.1-0.5C101,42.3,101.6,42.8,101.6,43.6z"/>
					<path class="st1" d="M103,41.3c0-0.3,0.3-0.6,0.6-0.6s0.6,0.3,0.6,0.6s-0.3,0.6-0.6,0.6S103,41.7,103,41.3z M104.1,45.9h-1
						v-3.6h1V45.9z"/>
					<path class="st1" d="M109.1,43.6v2.3h-1v-2.1c0-0.4-0.3-0.7-0.7-0.7c-0.4,0-0.8,0.2-0.8,0.7v2.1h-1v-3.6h0.9v0.4
						c0.2-0.3,0.7-0.5,1.1-0.5C108.5,42.3,109.1,42.8,109.1,43.6z"/>
					<path class="st1" d="M113.9,43h-0.6c0.1,0.2,0.1,0.4,0.1,0.6c0,0.8-0.6,1.4-1.5,1.4c-0.1,0-0.3,0-0.4,0s-0.3,0.1-0.3,0.2
						c0,0.1,0.1,0.2,0.3,0.2h0.5c1.2,0,1.8,0.3,1.8,1.1s-0.6,1.2-1.8,1.2c-1.2,0-1.9-0.5-1.9-1.2c0-0.3,0.2-0.6,0.5-0.7
						c-0.2-0.2-0.2-0.4-0.2-0.6c0-0.3,0.2-0.5,0.4-0.6c-0.3-0.2-0.4-0.6-0.4-1c0-0.8,0.6-1.4,1.5-1.4c0.2,0,0.4,0,0.6,0.1h1.4V43z
						 M112.1,46.1h-0.6c-0.2,0.1-0.3,0.2-0.3,0.4c0,0.3,0.3,0.5,0.9,0.5s0.8-0.2,0.8-0.5S112.7,46.1,112.1,46.1z M112.6,43.6
						c0-0.4-0.2-0.6-0.6-0.6s-0.6,0.2-0.6,0.6c0,0.4,0.2,0.6,0.6,0.6S112.6,44,112.6,43.6z"/>
					<path class="st1" d="M117.3,41.3c0-0.3,0.3-0.6,0.6-0.6s0.6,0.3,0.6,0.6s-0.3,0.6-0.6,0.6S117.3,41.7,117.3,41.3z M118.4,45.9
						h-1v-3.6h1V45.9z"/>
					<path class="st1" d="M125.6,43.6v2.3h-1v-2.1c0-0.4-0.2-0.7-0.6-0.7s-0.8,0.2-0.8,0.7v2.1h-1v-2.1c0-0.4-0.2-0.7-0.6-0.7
						s-0.7,0.2-0.7,0.7v2.1h-1v-3.6h0.9v0.4c0.2-0.3,0.6-0.5,1.1-0.5s0.9,0.2,1.1,0.6c0.3-0.4,0.7-0.6,1.2-0.6
						C125.1,42.3,125.6,42.8,125.6,43.6z"/>
					<path class="st1" d="M132.7,43.6v2.3h-1v-2.1c0-0.4-0.2-0.7-0.6-0.7s-0.8,0.2-0.8,0.7v2.1h-1v-2.1c0-0.4-0.2-0.7-0.6-0.7
						c-0.4,0-0.7,0.2-0.7,0.7v2.1h-1v-3.6h0.9v0.4c0.2-0.3,0.6-0.5,1.1-0.5s0.9,0.2,1.1,0.6c0.3-0.4,0.7-0.6,1.2-0.6
						C132.2,42.3,132.7,42.8,132.7,43.6z"/>
					<path class="st1" d="M134.1,44.1c0-1.1,0.8-1.9,1.9-1.9c1.1,0,1.9,0.8,1.9,1.9c0,1.1-0.8,1.9-1.9,1.9
						C134.9,46,134.1,45.2,134.1,44.1z M136.9,44.1c0-0.6-0.4-1-0.9-1s-0.9,0.4-0.9,1s0.4,1,0.9,1S136.9,44.7,136.9,44.1z"/>
					<path class="st1" d="M142.9,44.1c0,1.1-0.8,1.9-1.7,1.9c-0.5,0-0.9-0.2-1.1-0.6v0.5h-0.9v-5.3h1v2.1c0.2-0.3,0.6-0.4,1-0.4
						C142.2,42.3,142.9,43,142.9,44.1z M141.9,44.1c0-0.6-0.4-1-0.9-1s-0.9,0.4-0.9,1s0.4,1,0.9,1C141.6,45.1,141.9,44.7,141.9,44.1
						z"/>
					<path class="st1" d="M144.2,41.3c0-0.3,0.3-0.6,0.6-0.6s0.6,0.3,0.6,0.6s-0.3,0.6-0.6,0.6S144.2,41.7,144.2,41.3z M145.3,45.9
						h-1v-3.6h1V45.9z"/>
					<path class="st1" d="M146.8,40.6h1v5.3h-1V40.6z"/>
					<path class="st1" d="M149.3,41.3c0-0.3,0.3-0.6,0.6-0.6s0.6,0.3,0.6,0.6s-0.3,0.6-0.6,0.6S149.3,41.7,149.3,41.3z M150.3,45.9
						h-1v-3.6h1V45.9z"/>
					<path class="st1" d="M153.6,45.2c0.3,0,0.6-0.1,0.9-0.3l0.6,0.6c-0.4,0.4-0.9,0.6-1.5,0.6c-1.1,0-1.9-0.7-1.9-1.9
						c0-1.1,0.7-1.9,1.9-1.9s1.7,0.8,1.7,1.7c0,0.1,0,0.4,0,0.5h-2.6C152.8,44.9,153.1,45.2,153.6,45.2z M152.7,43.8h1.7
						c0-0.4-0.3-0.7-0.8-0.7C153.1,43.1,152.8,43.4,152.7,43.8z"/>
					<path class="st1" d="M159.1,42.3l-0.2,0.9c-0.1-0.1-0.3-0.1-0.4-0.1c-0.4,0-0.8,0.3-0.8,0.8v2h-1v-3.6h0.9v0.5
						c0.2-0.4,0.6-0.6,1.1-0.6C158.8,42.3,159,42.3,159.1,42.3z"/>
				</g>
			</g>
		</g>
	</g>
	
		<linearGradient id="SVGID_1_" gradientUnits="userSpaceOnUse" x1="54.1206" y1="25.8482" x2="54.1206" y2="57.0722" gradientTransform="matrix(1 0 0 -1 0 57.5276)">
		<stop  offset="0" style="stop-color:#2A7298"/>
		<stop  offset="1" style="stop-color:#5FB678"/>
	</linearGradient>
	<path class="st2" d="M58.8,33l-1.2-9.6c-0.3-2.5-1.2-5-2.6-7.1L54.1,15l-0.9,1.3c-1.4,2.1-2.3,4.6-2.6,7.1L49.4,33
		c-0.1,1.1,0.2,2.1,0.9,2.9l3.8,4.3v-0.1v0.1l3.8-4.3C58.7,35.1,59,34.1,58.8,33z M56.8,34.9l-2.6,3l-2.6-3
		c-0.4-0.5-0.6-1.1-0.5-1.7l1.2-9.6c0.3-2.1,0.9-4,2-5.8c1,1.8,1.7,3.8,2,5.8l1.2,9.6C57.4,33.8,57.2,34.4,56.8,34.9z"/>
	
		<linearGradient id="SVGID_2_" gradientUnits="userSpaceOnUse" x1="54.1" y1="36.0613" x2="54.1" y2="47.2649" gradientTransform="matrix(1 0 0 -1 0 57.5276)">
		<stop  offset="0" style="stop-color:#2A7298"/>
		<stop  offset="1" style="stop-color:#5FB678"/>
	</linearGradient>
	<path class="st3" d="M54.8,8c-0.2,0-0.4-0.1-0.7-0.1V8V7.9c-0.2,0-0.4,0-0.7,0.1c-1.7,0.3-3,2-3,3.8c0,1,0.4,1.9,1.1,2.6l0.1,0.1
		c0.2,0.2,0.4,0.4,0.6,0.6c0.3-0.4,0.6-0.8,1-1.2c-0.1-0.2-0.3-0.3-0.5-0.5l-0.1-0.1c-0.4-0.4-0.6-0.9-0.6-1.5
		c0-1.1,0.8-2.1,1.8-2.3c0.1,0,0.2,0,0.3,0V9.4v0.1c0.1,0,0.2,0,0.3,0c1,0.2,1.8,1.2,1.8,2.3c0,0.6-0.2,1.1-0.6,1.5l-0.1,0.1
		c-0.2,0.2-0.3,0.3-0.5,0.5c0.4,0.4,0.7,0.8,1,1.2c0.2-0.2,0.4-0.4,0.6-0.6l0.1-0.1c0.7-0.7,1.1-1.6,1.1-2.6
		C57.8,9.9,56.5,8.3,54.8,8z"/>
</g>
</svg>
