<svg id="Composant_11_3" data-name="Composant 11 – 3" xmlns="http://www.w3.org/2000/svg" xmlns:xlink="http://www.w3.org/1999/xlink" width="524" height="145.681" viewBox="0 0 524 145.681">
  <defs>
    <linearGradient id="linear-gradient" x1="1.011" y1="0.317" x2="0.042" y2="1.013" gradientUnits="objectBoundingBox">
      <stop offset="0" stop-color="#dbca92"/>
      <stop offset="1" stop-color="#a19f78"/>
    </linearGradient>
    <filter id="Rectangle_45" x="220.066" y="52.395" width="221.868" height="93.285" filterUnits="userSpaceOnUse">
      <feOffset dy="11" input="SourceAlpha"/>
      <feGaussianBlur stdDeviation="6.5" result="blur"/>
      <feFlood flood-opacity="0.102"/>
      <feComposite operator="in" in2="blur"/>
      <feComposite in="SourceGraphic"/>
    </filter>
    <linearGradient id="linear-gradient-2" x1="0.5" y1="0" x2="0.5" y2="1" xlink:href="#linear-gradient"/>
  </defs>
  <g transform="matrix(1, 0, 0, 1, 0, 0)" filter="url(#Rectangle_45)">
    <rect id="Rectangle_45-2" data-name="Rectangle 45" width="180.391" height="41.804" rx="20.902" transform="matrix(1, -0.07, 0.07, 1, 239.57, 73.48)" fill="url(#linear-gradient)"/>
  </g>
  <text id="Partenaires" transform="matrix(0.998, -0.07, 0.07, 0.998, 331.3, 94.132)" fill="#fff" font-size="16" font-family="Typold-Regular, Typold"><tspan x="-56.584" y="0">PARTENAIRES</tspan></text>
  <g id="logo-vendez" transform="translate(0.021)">
    <g id="Calque_1" data-name="Calque 1" transform="translate(-0.021)">
      <g id="Groupe_276" data-name="Groupe 276">
        <g id="Groupe_275" data-name="Groupe 275">
          <g id="Groupe_270" data-name="Groupe 270" transform="translate(15.915)">
            <path id="Tracé_164" data-name="Tracé 164" d="M104.687,55.281H98.168V33.826L55.941,7.749l-38.7,25.988V50.377L10.72,43.709V30.27L55.792,0l48.9,30.182Z" transform="translate(-10.72)" fill="#fff"/>
          </g>
          <g id="Groupe_271" data-name="Groupe 271" transform="translate(15.915 79.017)">
            <path id="Tracé_165" data-name="Tracé 165" d="M104.687,84.252H10.72V53.33h6.519v24.4H98.168V63.361l6.519-6.386Z" transform="translate(-10.72 -53.33)" fill="#fff"/>
          </g>
          <g id="Groupe_274" data-name="Groupe 274" transform="translate(0 34.344)">
            <g id="Groupe_272" data-name="Groupe 272">
              <path id="Tracé_166" data-name="Tracé 166" d="M25.347,79.854,1.255,55.2a4.341,4.341,0,0,1,0-6.149h0a4.356,4.356,0,0,1,6.149,0h.015L25.391,67.423,68.36,24.454a4.326,4.326,0,0,1,6.134,0h0a4.445,4.445,0,0,1,0,6.149h0Z" transform="translate(0.021 -23.179)" fill="url(#linear-gradient-2)"/>
            </g>
            <g id="Groupe_273" data-name="Groupe 273" transform="translate(52.231 0.322)">
              <path id="Tracé_167" data-name="Tracé 167" d="M62.922,79.9,35.23,52.19l6.149-6.149L62.922,67.6l42.968-42.968a4.445,4.445,0,0,1,6.149,0h0a4.445,4.445,0,0,1,0,6.149h0Z" transform="translate(-35.23 -23.397)" fill="url(#linear-gradient-2)"/>
            </g>
          </g>
        </g>
        <path id="Tracé_170" data-name="Tracé 170" d="M122.873,31.29l-8.416,20.862H108.9L100.47,31.29h5.23l5.927,15.6,5.927-15.6Z" transform="translate(48.425 15.071)" fill="#fff"/>
        <path id="Tracé_171" data-name="Tracé 171" d="M127.437,48.6a7.72,7.72,0,0,0,5.482-2.193l3.1,3.2a11.853,11.853,0,0,1-8.46,3.274,10.683,10.683,0,0,1-11.2-11.083,10.372,10.372,0,0,1,10.876-10.861,9.423,9.423,0,0,1,10.031,9.749,21.054,21.054,0,0,1-.282,2.963h-15.6A5.764,5.764,0,0,0,127.437,48.6Zm-6.06-8.668H132.46a4.83,4.83,0,0,0-5.319-4.727,5.586,5.586,0,0,0-5.764,4.727Z" transform="translate(56.07 14.891)" fill="#fff"/>
        <path id="Tracé_172" data-name="Tracé 172" d="M153.062,39.141V52.328h-4.815V40.06a4.445,4.445,0,0,0-4.564-4.578c-2.608,0-5.438,1.615-5.438,4.771V52.358H133.4V31.466h4.267l.3,2.815a8.045,8.045,0,0,1,6.8-3.349,7.927,7.927,0,0,1,8.3,8.208Z" transform="translate(64.286 14.895)" fill="#fff"/>
        <path id="Tracé_173" data-name="Tracé 173" d="M171.126,24.38V55.495h-4.312l-.252-2.963a8.164,8.164,0,0,1-6.934,3.482c-5.556,0-10.194-4.519-10.194-11.038A10.372,10.372,0,0,1,159.806,34.07a8.209,8.209,0,0,1,6.46,2.726V24.35Zm-4.445,20.743a6.134,6.134,0,1,0-12.239,0,6.134,6.134,0,1,0,12.239,0Z" transform="translate(72.003 11.729)" fill="#fff"/>
        <path id="Tracé_174" data-name="Tracé 174" d="M178.087,48.6a7.72,7.72,0,0,0,5.482-2.193l3.111,3.2a11.972,11.972,0,0,1-8.475,3.274A10.683,10.683,0,0,1,167,41.8a10.372,10.372,0,0,1,10.875-10.861,9.423,9.423,0,0,1,10.046,9.749,21.254,21.254,0,0,1-.3,2.963h-15.6a5.778,5.778,0,0,0,6.06,4.949Zm-6.06-8.668H183.11a4.83,4.83,0,0,0-5.319-4.727A5.586,5.586,0,0,0,172.027,39.931Z" transform="translate(80.466 14.891)" fill="#fff"/>
        <path id="Tracé_175" data-name="Tracé 175" d="M200.257,47.8v4.356H182.67V48.418l10.861-12.772H183V31.29H200.05v3.689L189.086,47.8Z" transform="translate(88.018 15.071)" fill="#fff"/>
        <path id="Tracé_176" data-name="Tracé 176" d="M230.44,39.145V52.332h-4.815V40.064c0-2.963-1.615-4.608-4.223-4.608a4.815,4.815,0,0,0-5.112,4.771V52.332h-4.815V40.064c0-2.963-1.615-4.608-4.178-4.608a4.8,4.8,0,0,0-5.112,4.771V52.332H197.34V31.47h4.267l.3,2.815a7.986,7.986,0,0,1,13.335.459,8.475,8.475,0,0,1,7.26-3.808,7.7,7.7,0,0,1,7.942,8.208Z" transform="translate(95.084 14.891)" fill="#fff"/>
        <path id="Tracé_177" data-name="Tracé 177" d="M222.48,41.751a11.127,11.127,0,0,1,22.225,0,11.127,11.127,0,0,1-22.225,0Zm17.261,0a6.134,6.134,0,1,0-12.239,0,6.134,6.134,0,1,0,12.239,0Z" transform="translate(107.193 15.027)" fill="#fff"/>
        <path id="Tracé_178" data-name="Tracé 178" d="M260.032,39.143V52.329h-4.8V40.061a4.445,4.445,0,0,0-4.564-4.578c-2.623,0-5.438,1.615-5.438,4.771V52.359h-4.86V31.468h4.282l.282,2.815a8.045,8.045,0,0,1,6.742-3.349,7.912,7.912,0,0,1,8.357,8.208Z" transform="translate(115.81 14.894)" fill="#fff"/>
        <path id="Tracé_179" data-name="Tracé 179" d="M278.817,44.976c0,6.519-4.608,11.038-10.209,11.038a8.016,8.016,0,0,1-6.875-3.452l-.252,2.963H257.17V24.41h4.845V36.826a8.194,8.194,0,0,1,6.43-2.7,10.372,10.372,0,0,1,10.372,10.846Zm-4.978,0a6.134,6.134,0,1,0-12.239,0,6.134,6.134,0,1,0,12.239,0Z" transform="translate(123.902 11.758)" fill="#fff"/>
        <path id="Tracé_180" data-name="Tracé 180" d="M274.4,28.277a3.067,3.067,0,1,1,.9,2.174A3.052,3.052,0,0,1,274.4,28.277Zm5.482,26.789h-4.815V34.2h4.815Z" transform="translate(132.201 12.157)" fill="#fff"/>
        <path id="Tracé_181" data-name="Tracé 181" d="M292.247,48.6a7.675,7.675,0,0,0,5.467-2.193l3.112,3.2a11.942,11.942,0,0,1-8.46,3.274,10.683,10.683,0,0,1-11.2-11.083,10.372,10.372,0,0,1,10.861-10.861,9.423,9.423,0,0,1,10.046,9.749,19.265,19.265,0,0,1-.3,2.963H286.187A5.764,5.764,0,0,0,292.247,48.6Zm-6.06-8.668h11.038a4.8,4.8,0,0,0-5.3-4.727,5.586,5.586,0,0,0-5.734,4.727Z" transform="translate(135.454 14.891)" fill="#fff"/>
        <path id="Tracé_182" data-name="Tracé 182" d="M317.877,39.141V52.328h-4.815V40.06a4.445,4.445,0,0,0-4.564-4.578c-2.608,0-5.438,1.615-5.438,4.771V52.358H298.2V31.466h4.282l.282,2.815a8.09,8.09,0,0,1,6.816-3.349,7.927,7.927,0,0,1,8.3,8.208Z" transform="translate(143.665 14.895)" fill="#fff"/>
        <path id="Tracé_183" data-name="Tracé 183" d="M314.9,44.6a3.171,3.171,0,1,1,.923,2.267A3.171,3.171,0,0,1,314.9,44.6Z" transform="translate(151.709 19.97)" fill="#fff"/>
        <path id="Tracé_184" data-name="Tracé 184" d="M344.337,44.976c0,6.519-4.608,11.038-10.209,11.038a8.016,8.016,0,0,1-6.875-3.452L327,55.525H322.69V24.41h4.9V36.826a8.194,8.194,0,0,1,6.43-2.7,10.372,10.372,0,0,1,10.312,10.846Zm-4.978,0a6.134,6.134,0,1,0-12.239,0,6.134,6.134,0,1,0,12.239,0Z" transform="translate(155.461 11.758)" fill="#fff"/>
        <path id="Tracé_185" data-name="Tracé 185" d="M350.607,48.6a7.675,7.675,0,0,0,5.467-2.193l3.112,3.2a11.942,11.942,0,0,1-8.46,3.274,10.683,10.683,0,0,1-11.2-11.083A10.372,10.372,0,0,1,350.4,30.937a9.423,9.423,0,0,1,10.031,9.749,21.054,21.054,0,0,1-.281,2.963H344.562a5.764,5.764,0,0,0,6.045,4.949Zm-6.045-8.668H355.63a4.8,4.8,0,0,0-5.3-4.727A5.586,5.586,0,0,0,344.562,39.93Z" transform="translate(163.564 14.891)" fill="#fff"/>
      </g>
    </g>
  </g>
</svg>
