<?xml version="1.0" encoding="utf-8"?>
<!-- Generator: Adobe Illustrator 21.0.0, SVG Export Plug-In . SVG Version: 6.00 Build 0)  -->
<svg version="1.1" id="Calque_1" xmlns="http://www.w3.org/2000/svg" xmlns:xlink="http://www.w3.org/1999/xlink" x="0px" y="0px"
	 viewBox="0 0 493.3 106.9" style="enable-background:new 0 0 493.3 106.9;" xml:space="preserve" width="493px" height="106px">
<style type="text/css">
	.st0{clip-path:url(#SVGID_2_);}
	.st1{fill:url(#SVGID_3_);}
	.st2{fill:#FFFFFF;}
	.st3{fill:#1B2C4C;}
	.st4{clip-path:url(#SVGID_5_);}
	.st5{fill:url(#SVGID_6_);}
	.st6{clip-path:url(#SVGID_8_);}
	.st7{fill:url(#SVGID_9_);}
</style>
<g id="Calque_2">
	<g id="Calque_1-2">
		<g>
			<defs>
				<path id="SVGID_1_" d="M377.1,58.6c-0.5,0-0.9,0-1.4,0l-130.5,9.1c-10.9,0.9-18.9,10.5-18,21.4c0.8,8.8,7.3,16.1,16,17.7h8.1
					L378.5,98c10.9-1.2,18.7-10.9,17.5-21.8C394.9,66.5,386.9,59,377.1,58.6L377.1,58.6"/>
			</defs>
			<clipPath id="SVGID_2_">
				<use xlink:href="#SVGID_1_"  style="overflow:visible;"/>
			</clipPath>
			<g class="st0">
				
					<linearGradient id="SVGID_3_" gradientUnits="userSpaceOnUse" x1="318.3691" y1="6.0747" x2="318.3691" y2="64.1347" gradientTransform="matrix(0.9414 0 0 -0.9414 12.1306 120.4508)">
					<stop  offset="0" style="stop-color:#DCC992"/>
					<stop  offset="1" style="stop-color:#A1A077"/>
				</linearGradient>
				<polygon class="st1" points="215.2,61.2 388.2,19.9 408.4,104.3 235.4,145.7 				"/>
			</g>
		</g>
		<path class="st2" d="M266,84.7c-0.1-1.3-0.9-2-2.4-1.9l-2.5,0.2l0.3,4.2l2.5-0.2C265.4,86.9,266.1,86.1,266,84.7 M267.5,84.7
			c0.2,2-1.2,3.6-3.6,3.8l-2.5,0.2l0.3,3.6l-1.4,0.1l-0.7-10.5l4-0.3C265.8,81.3,267.4,82.6,267.5,84.7"/>
		<path class="st2" d="M275,87l-2.2-4.6l-1.6,4.8L275,87z M275.6,88.3l-4.8,0.3l-0.9,2.9l-1.6,0.1l3.6-10.8l1.6-0.1l5.1,10.2
			l-1.6,0.1L275.6,88.3z"/>
		<path class="st2" d="M281.5,85l3.1-0.2c1.2-0.1,1.9-0.7,1.8-1.9c-0.1-1.1-0.8-1.6-2-1.6l-3.1,0.2L281.5,85z M283.6,86.2l-2,0.1
			l0.3,4.4l-1.4,0.1l-0.7-10.5l4.5-0.3c2.1-0.2,3.5,1,3.6,2.8c0.2,1.6-1,3-2.6,3.2l3.3,4.2l-1.9,0.1L283.6,86.2z"/>
		<polygon class="st2" points="297.3,80.4 293.8,80.7 294.4,89.8 293,89.9 292.3,80.8 288.8,81 288.7,79.7 297.2,79.1 		"/>
		<polygon class="st2" points="307.3,87.6 307.4,88.9 299.9,89.5 299.2,78.9 306.5,78.4 306.6,79.8 300.7,80.2 300.9,83.4 306.6,83 
			306.7,84.3 301,84.7 301.3,88 		"/>
		<polygon class="st2" points="317.3,77.7 318.1,88.2 316.8,88.3 310.5,80.8 311.1,88.7 309.6,88.8 308.9,78.3 310.2,78.2 
			316.4,85.7 315.9,77.8 		"/>
		<path class="st2" d="M326.8,83.4l-2.2-4.6l-1.6,4.8L326.8,83.4z M327.4,84.7l-4.8,0.3l-0.9,2.9L320,88l3.6-10.9l1.6-0.1l5.1,10.2
			l-1.6,0.1L327.4,84.7z"/>
		
			<rect x="331.9" y="76.6" transform="matrix(0.9976 -6.975647e-02 6.975647e-02 0.9976 -4.8991 23.4034)" class="st2" width="1.4" height="10.5"/>
		<path class="st2" d="M337.8,81l3.1-0.2c1.2-0.1,1.8-0.7,1.8-1.8c-0.1-1.1-0.8-1.7-2-1.6l-3.1,0.2L337.8,81z M339.9,82.3l-2,0.1
			l0.3,4.3l-1.4,0.1L336,76.4l4.5-0.3c2.1-0.2,3.5,1,3.6,2.8c0.2,1.6-1,3-2.6,3.2l3.3,4.2l-1.8,0.1L339.9,82.3z"/>
		<polygon class="st2" points="354.1,84.3 354.2,85.6 346.8,86.2 346,75.7 353.4,75.1 353.5,76.5 347.6,76.9 347.8,80.1 353.5,79.7 
			353.5,81 347.9,81.4 348.1,84.7 		"/>
		<path class="st2" d="M355.7,84.4l0.6-1.3c1.1,0.7,2.4,1,3.8,0.9c1.5-0.1,2.5-0.8,2.4-1.9c-0.1-1.3-1.5-1.3-2.8-1.5
			c-3.2-0.3-4-1.1-4.2-2.6c-0.2-2.5,2.1-3.4,4-3.6c1.3-0.1,2.6,0.2,3.7,0.8l-0.6,1.3c-0.9-0.5-2-0.7-3-0.6c-1.8,0.1-2.7,0.9-2.6,2
			c0.1,0.9,0.7,1.3,2.8,1.5c1.3,0.1,3.9,0.3,4.1,2.7c0.1,1.9-1.4,3.2-3.9,3.4C358.5,85.5,357,85.2,355.7,84.4"/>
		<polygon class="st3" points="57.4,0 15,28.5 15,41.1 21.1,47.4 21.1,31.8 57.6,7.3 97.3,31.8 97.3,52 103.5,52 103.5,28.4 		"/>
		<polygon class="st3" points="103.5,103.5 15,103.5 15,74.4 21.1,74.4 21.1,97.4 97.3,97.4 97.3,83.8 103.5,77.8 		"/>
		<g>
			<defs>
				<path id="SVGID_4_" d="M64.4,33.5L23.9,74L7,56.7l0,0c-1.6-1.6-4.2-1.6-5.8,0c0,0,0,0,0,0l0,0c-1.6,1.6-1.6,4.2,0,5.8
					c0,0,0,0,0,0l22.7,23.2l46.3-46.3c1.5-1.6,1.5-4.2,0-5.8l0,0C68.6,31.9,66,31.9,64.4,33.5C64.4,33.5,64.4,33.5,64.4,33.5"/>
			</defs>
			<clipPath id="SVGID_5_">
				<use xlink:href="#SVGID_4_"  style="overflow:visible;"/>
			</clipPath>
			<g class="st4">
				
					<linearGradient id="SVGID_6_" gradientUnits="userSpaceOnUse" x1="-94.4876" y1="-33.6084" x2="-93.4876" y2="-33.6084" gradientTransform="matrix(0 53.3583 -53.3583 0 -1757.6066 5074.0269)">
					<stop  offset="0" style="stop-color:#DCC992"/>
					<stop  offset="1" style="stop-color:#A1A077"/>
				</linearGradient>
				<rect x="-0.4" y="32.3" class="st5" width="72.1" height="53.4"/>
			</g>
		</g>
		<g>
			<defs>
				<path id="SVGID_7_" d="M115.7,33.8L75.2,74.3L55,54l-5.8,5.8l26.1,26.1l46.2-46.2c1.6-1.6,1.5-4.2-0.1-5.8
					C119.8,32.3,117.3,32.3,115.7,33.8"/>
			</defs>
			<clipPath id="SVGID_8_">
				<use xlink:href="#SVGID_7_"  style="overflow:visible;"/>
			</clipPath>
			<g class="st6">
				
					<linearGradient id="SVGID_9_" gradientUnits="userSpaceOnUse" x1="-94.4893" y1="-33.7891" x2="-93.4893" y2="-33.7891" gradientTransform="matrix(0 53.1889 -53.1889 0 -1711.0724 5058.7065)">
					<stop  offset="0" style="stop-color:#DCC992"/>
					<stop  offset="1" style="stop-color:#A1A077"/>
				</linearGradient>
				<rect x="49.2" y="32.6" class="st7" width="73.9" height="53.2"/>
			</g>
		</g>
		<polygon class="st3" points="161.3,43.6 153.4,63.3 148.1,63.3 140.2,43.6 145.1,43.6 150.7,58.3 156.3,43.6 		"/>
		<path class="st3" d="M167.1,51.6h10.4c0-2.5-2.1-4.5-4.6-4.5c0,0,0,0,0,0h-0.4C169.8,47,167.5,48.9,167.1,51.6 M172.8,59.7
			c1.9,0,3.8-0.7,5.2-2l2.9,3c-2.1,2-5,3.2-8,3.1c-5.5,0.3-10.3-4-10.5-9.5c0-0.3,0-0.6,0-0.9c-0.3-5.4,3.9-10,9.3-10.2c0,0,0,0,0,0
			c0.3,0,0.6,0,0.9,0c4.9-0.3,9.1,3.4,9.4,8.3c0,0,0,0,0,0c0,0.3,0,0.6,0,0.9c0,0.9-0.1,1.9-0.3,2.8H167c0.4,2.8,2.9,4.9,5.7,4.7"/>
		<path class="st3" d="M204.6,50.8v12.4h-4.5V51.8c0.1-2.3-1.7-4.2-4-4.3c0,0,0,0,0,0c-0.1,0-0.2,0-0.2,0c-2.5,0-5.1,1.5-5.1,4.5
			v11.4h-4.6V43.6h4.1l0.3,2.7c1.5-2.1,3.9-3.2,6.4-3.2c4.1-0.2,7.6,3,7.8,7.1c0,0,0,0,0,0C204.7,50.4,204.7,50.7,204.6,50.8
			L204.6,50.8z"/>
		<path class="st3" d="M224.7,53.5c0.2-3.2-2.1-6-5.3-6.2c-3.2-0.2-6,2.1-6.2,5.3c0,0,0,0.1,0,0.1c0,0.3,0,0.5,0,0.8
			c-0.2,3.2,2.2,5.9,5.4,6.1c3.1,0.2,5.9-2.2,6.1-5.3C224.7,54,224.7,53.8,224.7,53.5 M228.9,34v29.3h-4.1l-0.2-2.8
			c-1.5,2.1-3.9,3.4-6.5,3.3c-5.2,0-9.6-4.3-9.6-10.4c-0.3-5.4,3.9-10,9.2-10.3c0,0,0,0,0,0h0.5c2.3-0.1,4.5,0.8,6.1,2.6V34
			L228.9,34z"/>
		<path class="st3" d="M237.7,51.6h10.4c0-2.5-2.1-4.5-4.6-4.5c-0.1,0-0.3,0-0.4,0C240.5,47,238.1,48.9,237.7,51.6L237.7,51.6z
			 M243.4,59.8c1.9,0,3.8-0.7,5.1-2.1l2.9,3c-2.2,2-5,3.1-8,3.1c-5.5,0.3-10.3-4-10.5-9.5c0-0.3,0-0.6,0-0.9
			c-0.3-5.4,3.9-10,9.3-10.2c0.3,0,0.6,0,0.9,0c4.9-0.3,9.1,3.4,9.4,8.3c0,0.3,0,0.6,0,0.9c0,0.9-0.1,1.9-0.3,2.8h-14.7
			c0.4,2.8,2.9,4.9,5.7,4.7L243.4,59.8z"/>
		<polygon class="st3" points="271.4,59.2 271.4,63.3 254.9,63.3 254.9,59.8 265.1,47.7 255.2,47.7 255.2,43.6 271.2,43.6 
			271.2,47.1 260.9,59.2 		"/>
		<path class="st3" d="M306.5,50.8v12.4h-4.5V51.8c0-2.8-1.5-4.3-4-4.3c-2.5-0.2-4.6,1.7-4.8,4.2c0,0,0,0,0,0c0,0.1,0,0.2,0,0.2
			v11.4h-4.5V51.8c0-2.8-1.5-4.3-3.9-4.3c-2.5-0.2-4.6,1.7-4.8,4.2c0,0,0,0,0,0c0,0.1,0,0.2,0,0.3v11.4h-4.6V43.6h4l0.3,2.7
			c2.4-3.4,7.1-4.2,10.5-1.8c0.8,0.6,1.5,1.3,2.1,2.2c1.5-2.3,4.1-3.7,6.8-3.6c4-0.2,7.4,2.9,7.5,6.9c0,0,0,0.1,0,0.1
			C306.6,50.4,306.6,50.6,306.5,50.8L306.5,50.8z"/>
		<path class="st3" d="M326.6,53.5c0.3-3.2-2.1-6-5.3-6.2c-3.2-0.3-6,2.1-6.2,5.3c0,0.1,0,0.1,0,0.2c0,0.3,0,0.5,0,0.8
			c-0.3,3.2,2.1,6,5.3,6.2c3.2,0.3,6-2.1,6.2-5.3c0-0.1,0-0.1,0-0.2C326.7,54,326.7,53.7,326.6,53.5 M310.4,53.5
			c0.3-5.8,5.2-10.2,11-9.9c5.4,0.3,9.6,4.6,9.9,9.9c-0.3,5.8-5.2,10.2-11,9.9C314.9,63.1,310.7,58.8,310.4,53.5"/>
		<path class="st3" d="M353.8,50.8v12.4h-4.6V51.8c0.1-2.3-1.7-4.2-4-4.3c0,0,0,0,0,0c-0.1,0-0.2,0-0.2,0c-2.5,0-5.1,1.5-5.1,4.5
			v11.4h-4.6V43.6h4l0.3,2.7c1.5-2,3.8-3.2,6.4-3.2c4.1-0.2,7.6,2.9,7.9,7c0,0,0,0,0,0C353.8,50.4,353.8,50.6,353.8,50.8L353.8,50.8
			z"/>
		<path class="st3" d="M374.5,53.4c0.2-3.2-2.2-5.9-5.4-6.2s-5.9,2.2-6.2,5.4c0,0.3,0,0.5,0,0.8c-0.2,3.2,2.2,5.9,5.4,6.2
			c3.2,0.2,5.9-2.2,6.2-5.4C374.5,53.9,374.5,53.7,374.5,53.4 M379.2,53.4c0,6.1-4.3,10.4-9.6,10.4c-2.6,0.1-5-1.1-6.5-3.2l-0.2,2.8
			h-4.1V34.1h4.6v11.7c1.5-1.7,3.8-2.6,6.1-2.5c5.4,0,9.8,4.4,9.8,9.8C379.2,53.1,379.2,53.3,379.2,53.4L379.2,53.4z"/>
		<path class="st3" d="M388,63.3h-4.5V43.6h4.5V63.3z M382.8,38.1c0-1.6,1.3-2.9,2.9-2.9c1.6,0,2.9,1.3,2.9,2.9
			c0,1.6-1.3,2.9-2.9,2.9c-0.8,0-1.5-0.3-2-0.8C383.1,39.6,382.8,38.8,382.8,38.1"/>
		<path class="st3" d="M397,51.6h10.4c0-2.5-2.1-4.5-4.6-4.5c0,0,0,0,0,0c-0.1,0-0.3,0-0.4,0C399.7,47,397.3,48.9,397,51.6L397,51.6
			z M402.7,59.8c1.9,0,3.8-0.7,5.1-2.1l2.9,3c-2.1,2-5,3.1-8,3.1c-5.5,0.3-10.3-4-10.5-9.5c0-0.3,0-0.6,0-0.9
			c-0.3-5.4,3.9-10,9.3-10.2c0,0,0,0,0,0c0.3,0,0.6,0,0.9,0c4.9-0.3,9.1,3.4,9.4,8.3c0,0.3,0,0.6,0,0.9c0,0.9-0.1,1.9-0.3,2.8H397
			c0.4,2.8,2.9,4.9,5.7,4.7"/>
		<path class="st3" d="M434.5,50.8v12.4H430V51.8c0.1-2.3-1.7-4.2-4.1-4.3c-0.1,0-0.2,0-0.2,0c-2.4,0-5.1,1.5-5.1,4.5v11.4H416V43.6
			h4l0.3,2.7c1.5-2.1,3.9-3.2,6.4-3.2c4.1-0.2,7.6,3,7.8,7.1c0,0,0,0,0,0C434.5,50.4,434.5,50.7,434.5,50.8L434.5,50.8z"/>
		<path class="st3" d="M439.3,60.8c0-1.6,1.4-3,3-2.9c1.6,0,3,1.4,2.9,3c0,1.6-1.4,3-3,2.9c-0.8,0-1.5-0.3-2.1-0.9
			C439.6,62.4,439.3,61.6,439.3,60.8"/>
		<path class="st3" d="M465.9,53.4c0.2-3.2-2.2-5.9-5.4-6.2c-3.2-0.2-5.9,2.2-6.2,5.4c0,0.3,0,0.5,0,0.8c-0.2,3.2,2.2,5.9,5.4,6.2
			s5.9-2.2,6.2-5.4C465.9,53.9,465.9,53.7,465.9,53.4 M470.6,53.4c0,6.1-4.3,10.4-9.6,10.4c-2.6,0.1-5-1.1-6.5-3.2l-0.2,2.8h-4.1
			V34.1h4.6v11.7c1.5-1.7,3.8-2.6,6.1-2.5c5.4,0,9.7,4.4,9.7,9.8C470.5,53.1,470.5,53.3,470.6,53.4L470.6,53.4z"/>
		<path class="st3" d="M478.4,51.6h10.4c0-2.5-2.1-4.5-4.5-4.5c0,0,0,0,0,0h-0.4C481.1,47,478.8,48.9,478.4,51.6L478.4,51.6z
			 M484,59.8c1.9,0,3.8-0.7,5.1-2.1l2.9,3c-2.1,2-5,3.1-8,3.1c-5.5,0.3-10.2-4-10.5-9.5c0-0.3,0-0.6,0-0.9c-0.3-5.4,3.9-10,9.3-10.2
			c0,0,0,0,0,0c0.3,0,0.6,0,0.9,0c4.9-0.3,9.1,3.4,9.4,8.3c0,0.3,0,0.6,0,0.9c0,0.9-0.1,1.9-0.3,2.8h-14.7c0.4,2.8,2.8,4.8,5.6,4.7
			V59.8z"/>
	</g>
</g>
</svg>
