<?xml version="1.0" encoding="utf-8"?>
<!-- Generator: Adobe Illustrator 19.0.0, SVG Export Plug-In . SVG Version: 6.00 Build 0)  -->
<svg version="1.1" baseProfile="basic" id="Calque_1"
	 xmlns="http://www.w3.org/2000/svg" xmlns:xlink="http://www.w3.org/1999/xlink" x="0px" y="0px" viewBox="0 0 93 131.3"
	 xml:space="preserve">
<style type="text/css">
	.st0{opacity:0.76;}
	.st1{fill:#FFFFFF;}
	.st2{font-family:'ProximaNova-Bold';}
	.st3{font-size:25px;}
	.st4{font-size:34px;}
	.st5{font-size:12px;}
	.st6{fill:none;stroke:#FFFFFF;stroke-width:4;}
	.st7{fill:none;stroke:#FFFFFF;stroke-width:3;}
	.st8{fill:none;stroke:#F15C27;stroke-miterlimit:10;}
</style>
<g id="gratuit_header" transform="translate(-1626.923 -1645.636) rotate(-19)" class="st0">
	<text id="XMLID_44_" transform="matrix(1 0 0 1 991.4805 2213.5503)" class="st1 st2 st3">249€</text>
	<text id="XMLID_43_" transform="matrix(1 0 0 1 983.6914 2168.6724)" class="st1 st2 st4">49€</text>
	<text id="XMLID_42_" transform="matrix(1 0 0 1 992.8984 2191.9675)" class="st1 st2 st5">au lieu de</text>
	<g id="Groupe_155" transform="translate(1021.002 2119.123) rotate(-20)">
		<path id="Tracé_162" class="st6" d="M2,20.7c0,0,8.5-24.6,36.2-17.7"/>
		<path id="Tracé_163" class="st7" d="M33.6-3.9l5.7,7.6l-8.4,3.8"/>
	</g>
</g>
<path id="XMLID_41_" class="st8" d="M18.5,94.1c0,0,14.7,24.1,26.4,22.1s0.8-9,7.2-20.5s14.5-31.4,17.9-11s6.5,38.4,10.5,25.4"/>
</svg>
