<?xml version="1.0" encoding="utf-8"?>
<!-- Generator: Adobe Illustrator 25.0.0, SVG Export Plug-In . SVG Version: 6.00 Build 0)  -->
<svg version="1.1" id="Capa_1" xmlns="http://www.w3.org/2000/svg" xmlns:xlink="http://www.w3.org/1999/xlink" x="0px" y="0px"
	 viewBox="0 0 512 512" style="enable-background:new 0 0 512 512;" xml:space="preserve">
<style type="text/css">
	.st0{fill:#FFFFFF;}
	.st1{fill:#002850;}
	.st2{fill:#FFD600;}
</style>
<g>
	<path class="st0" d="M256,38.4h-4.8V256h222.5l0,0C473.6,135.8,376.2,38.4,256,38.4z"/>
</g>
<g>
	<path class="st1" d="M473.7,482.1H38.4c-4.6,0-8.4-3.8-8.4-8.4V38.4c0-4.6,3.8-8.4,8.4-8.4h435.3c4.6,0,8.4,3.8,8.4,8.4v435.3
		C482.1,478.3,478.3,482.1,473.7,482.1z M46.8,465.3h418.5V46.8H46.8V465.3z"/>
</g>
<g>
	<path class="st2" d="M501.2,508.7H10.8c-4.1,0-7.5-3.4-7.5-7.5V10.8c0-4.1,3.4-7.5,7.5-7.5h490.4c4.1,0,7.5,3.4,7.5,7.5v490.4
		C508.7,505.3,505.3,508.7,501.2,508.7z M18.3,493.7h475.4V18.3H18.3V493.7z"/>
</g>
<g>
	<path class="st1" d="M473.6,264.4H38.4c-4.6,0-8.4-3.8-8.4-8.4s3.8-8.4,8.4-8.4h435.2c4.6,0,8.4,3.8,8.4,8.4
		C482,260.6,478.2,264.4,473.6,264.4z"/>
</g>
<g>
	<path class="st1" d="M251.2,482c-4.6,0-8.4-3.8-8.4-8.4V38.4c0-4.6,3.8-8.4,8.4-8.4s8.4,3.8,8.4,8.4v435.2
		C259.6,478.2,255.8,482,251.2,482z"/>
</g>
</svg>
